{
	"279": {
		"dealerName": "Six & Mango Equipment LLP Co-op Funds",
		"dealerShipsOwned": [{
			"dealerShipName": "61125 - Frisco, TX",
			"coopBalance": "11,000",
			"kdmBudgetTotal": "32,000",
			"kdmBudgetSpent": "4,000",
			"kdmTotalBalance": "28,000",
			"coopFunds": {
				"kdmBudget": 32000,
				"otherSpend": 18000,
				"availableCoopFunds": 6000
			},
			"kdmBudget": {
				"kdmSpent": 4000,
				"kdmAvailableCredit": 6000,
				"kdmAvailableCoop": 22000
			}
		}, {
			"dealerShipName": "61130 - Grand Prairie, TX",
			"coopBalance": "8,000",
			"kdmBudgetTotal": "32,000",
			"kdmBudgetSpent": "7,000",
			"kdmTotalBalance": "28,000",
			"coopFunds": {
				"kdmBudget": 28000,
				"otherSpend": 22000,
				"availableCoopFunds": 6000
			},
			"kdmBudget": {
				"kdmSpent": 8000,
				"kdmAvailableCredit": 2000,
				"kdmAvailableCoop": 18000
			}
		}, {
			"dealerShipName": "61135 - Sherman, TX",
			"coopBalance": "11,000",
			"kdmBudgetTotal": "32,000",
			"kdmBudgetSpent": "4,000",
			"kdmTotalBalance": "28,000",
			"coopFunds": {
				"kdmBudget": 18000,
				"otherSpend": 32000,
				"availableCoopFunds": 6000
			},
			"kdmBudget": {
				"kdmSpent": 0,
				"kdmAvailableCredit": 6000,
				"kdmAvailableCoop": 26000
			}
		}],
		"lastUpdated": "09/14/2016"
	},
	"105": {
		"dealerName": "ACE Hardware Co-op Funds",
		"dealerShipsOwned": [{
			"dealerShipName": "Paul's Ace Hardware - Tempe, AZ",
			"coopBalance": "5,500",
			"kdmBudgetTotal": "16,000",
			"kdmBudgetSpent": "2,000",
			"kdmTotalBalance": "14,000",
			"coopFunds": {
				"kdmBudget": 16000,
				"otherSpend": 9000,
				"availableCoopFunds": 3000
			},
			"kdmBudget": {
				"kdmSpent": 2000,
				"kdmAvailableCredit": 3000,
				"kdmAvailableCoop": 11000
			}
		}, {
			"dealerShipName": "Homco Ace Hardware - Tempe, AZ",
			"coopBalance": "4,000",
			"kdmBudgetTotal": "16,000",
			"kdmBudgetSpent": "3,500",
			"kdmTotalBalance": "14,000",
			"coopFunds": {
				"kdmBudget": 14000,
				"otherSpend": 11000,
				"availableCoopFunds": 3000
			},
			"kdmBudget": {
				"kdmSpent": 4000,
				"kdmAvailableCredit": 1000,
				"kdmAvailableCoop": 9000
			}
		}],
		"lastUpdated": "11/14/2016"
	}
}