[    
    {
        "jobDict": {
            "68852": {
                "pk": "1",
                "name": "68852",
                "city": "Allentown Morning Call Sunday Select",
                "qty": "22164",
				"date": "00/00/00"
            },
            "68867": {
                "pk": "2",
                "name": "68867",
                "city": "Allentown Morning Call Weekly TMC",
                "qty": "113726",
				"date": "00/00/00"
            },
            "69053": {
                "pk": "3",
                "name": "69053",
                "city": "Baltimore Sun HD",
                "qty": "208111",
				"date": "00/00/00"
            },
            "69162": {
                "pk": "4",
                "name": "69162",
                "city": "Baltimore Sun Sunday Select",
                "qty": "39104",
				"date": "00/00/00"
            },
            "69163": {
                "pk": "5",
                "name": "69163",
                "city": "Baltimore Sun TMC",
                "qty": "659634",
				"date": "00/00/00"
            },
            "69164": {
                "pk": "6",
                "name": "69164",
                "city": "Chicago Home and Garden",
                "qty": "13657",
				"date": "00/00/00"
            }
        },
        "facilityId": 1,
        "facilityName": "CIRCULATION"
    }, 	
	{
        "jobDict": {
            "77947 The Room Place": {
                "pk": "1",
                "name": "77947 The Room Place",
                "city": "Chicago",
                "qty": "",
				"date": "00/00/00"
            },
            "77796 Bridgestone": {
                "pk": "2",
                "name": "77796 Bridgestone",
                "city": "National",
                "qty": "",
				"date": "00/00/00"
            },
            "77705 Alsip Nursery": {
                "pk": "3",
                "name": "77705 Alsip Nursery",
                "city": "Chicago",
                "qty": "",
				"date": "00/00/00"
            },
            "79517 Appliance Direct": {
                "pk": "4",
                "name": "79517 Appliance Direct",
                "city": "Orlando",
                "qty": "",
				"date": "00/00/00"
            },
            "77706 Baer's Furniture": {
                "pk": "5",
                "name": "77706 Baer's Furniture",
                "city": "Ft. Lauderdale/Orlando",
                "qty": "",
				"date": "00/00/00"
            },
            "77874 Goodwin College": {
                "pk": "6",
                "name": "77874 Goodwin College",
                "city": "Hartford",
                "qty": "",
				"date": "00/00/00"
            }
        },
        "facilityId": 2,
        "facilityName": "ADVERTISERS"
    },   	
	{
        "jobDict": {
            "77947 The Room Place": {
                "pk": "1",
                "name": "77947 The Room Place",
                "city": "Chicago",
                "qty": ""
            },
            "77796 Bridgestone": {
                "pk": "2",
                "name": "77796 Bridgestone",
                "city": "National",
                "qty": ""
            },
            "77705 Alsip Nursery": {
                "pk": "3",
                "name": "77705 Alsip Nursery",
                "city": "Chicago",
                "qty": ""
            },
            "79517 Appliance Direct": {
                "pk": "4",
                "name": "79517 Appliance Direct",
                "city": "Orlando",
                "qty": ""
            },
            "77706 Baer's Furniture": {
                "pk": "5",
                "name": "77706 Baer's Furniture",
                "city": "Ft. Lauderdale/Orlando",
                "qty": ""
            },
            "77874 Goodwin College": {
                "pk": "6",
                "name": "77874 Goodwin College",
                "city": "Hartford",
                "qty": ""
            }
        },
        "facilityId": 3,
        "facilityName": "ANALYSIS"
    }
]