[    
    {
        "jobDict": {
            "March - Pizza 6x9 postcard": {
                "pk": "1",
                "jobName": "March - Pizza 6x9 postcard",
                "qty": "19,000",				
                "date": "03/15/2013",				
				"orderImage":"5_5x11_optin_template.png"
            },
            "February - Pizza 6x9 postcard": {
                "pk": "2",
                "jobName": "February - Pizza 6x9 postcard",
                "qty": "20,000",				 
                "date": "02/15/2013",				
				"orderImage":"5_5x11_optin_template.png"
            },
            "January - Pizza 6x9 postcard": {
                "pk": "3",
                "jobName": "January - Pizza 6x9 postcard",
                "qty": "15,000",				
                "date": "01/15/2013",				
				"orderImage":"5_5x11_optin_template.png"
            },
            "December - Pizza 6x9 postcard": {
                "pk": "4",
                "jobName": "December - Pizza 6x9 postcard",
                "qty": "10,000",				
                "date": "12/15/2012",				
				"orderImage":"5_5x11_optin_template.png"
            },
            "November - Pizza 6x9 postcard": {
                "pk": "5",
                "jobName": "November - Pizza 6x9 postcard",
                "qty": "14,000",				
                "date": "11/15/2013",				
				"orderImage":"5_5x11_optin_template.png"
            }
        },
        "jobHistoryId": 1,
        "jobHistoryDic": "JOB HISTORY"
    }		   	   	    
]