[
{
	"FieldName":[

    
                                          {"value":"-1","name":"Select"},
                                          {"value":"fullName","name":"Full Name"},
                                          {"value":"adAreaFlag","name":"adAreaFlag"}, 
                                          {"value":"address1","name":"address1"},
                                          {"value":"address2","name":"address2"},
                                          {"value":"addressTypeCode","name":"addressTypeCode"},
                                          {"value":"adultCount","name":"adultCount"},
                                          {"value":"age00_02_F","name":"age00_02_F"},
                                          {"value":"age00_02_M","name":"age00_02_M"},
                                          {"value":"age00_02_U","name":"age00_02_U"},
                                          {"value":"age03_05_F","name":"age03_05_F"},
                                          {"value":"age03_05_M","name":"age03_05_M"},
                                          {"value":"age03_05_U","name":"age03_05_U"},
                                          {"value":"age06_10_F","name":"age06_10_F"},
                                          {"value":"age06_10_M","name":"age06_10_M"},
                                          {"value":"age06_10_U","name":"age06_10_U"},
                                          {"value":"age11_15_F","name":"age11_15_F"},
                                          {"value":"age11_15_M","name":"age11_15_M"},
                                          {"value":"age11_15_U","name":"age11_15_U"},
                                          {"value":"age16_17_F","name":"age16_17_F"},
                                          {"value":"age16_17_M","name":"age16_17_M"},
                                          {"value":"age16_17_U","name":"age16_17_U"},
                                          {"value":"age18_24_F","name":"age18_24_F"},
                                          {"value":"age18_24_M","name":"age18_24_M"},
                                          {"value":"age18_24_U","name":"age18_24_U"},
                                          {"value":"age25_34_F","name":"age25_34_F"},
                                          {"value":"age25_34_M","name":"age25_34_M"},
                                          {"value":"age25_34_U","name":"age25_34_U"},
                                          {"value":"age2yrIncrement","name":"age2yrIncrement"}, 
                                          {"value":"age35_44_F","name":"age35_44_F"},
                                          {"value":"age35_44_M","name":"age35_44_M"},
                                          {"value":"age35_44_U","name":"age35_44_U"},
                                          {"value":"age45_54_F","name":"age45_54_F"},
                                          {"value":"age45_54_M","name":"age45_54_M"},
                                          {"value":"age45_54_U","name":"age45_54_U"},
                                          {"value":"age55_64_F","name":"age55_64_F"},
                                          {"value":"age55_64_M","name":"age55_64_M"},
                                          {"value":"age55_64_U","name":"age55_64_U"},
                                          {"value":"age65_74_F","name":"age65_74_F"},
                                          {"value":"age65_74_M","name":"age65_74_M"},
                                          {"value":"age65_74_U","name":"age65_74_U"},
                                          {"value":"age75_99_F","name":"age75_99_F"},
                                          {"value":"age75_99_M","name":"age75_99_M"},
                                          {"value":"age75_99_U","name":"age75_99_U"},
                                          {"value":"alternateSeqCode","name":"alternateSeqCode"},
                                          {"value":"axciomCompanyID","name":"axciomCompanyID"},
                                          {"value":"axciomHouseholdID","name":"axciomHouseholdID"}, 
                                          {"value":"axciomIndividualID","name":"axciomIndividualID"}, 
                                          {"value":"axciomPk","name":"axciomPk"},
                                          {"value":"backLoadedSequenceNumber","name":"backLoadedSequenceNumber"},
                                          {"value":"barcodeDiscount","name":"barcodeDiscount"},
                                          {"value":"batchCode","name":"batchCode"},
                                          {"value":"batchCodeOrig","name":"batchCodeOrig"},
                                          {"value":"billingId","name":"billingId"},
                                          {"value":"buildingKey","name":"buildingKey"}, 
                                          {"value":"businessPhone","name":"businessPhone"},
                                          {"value":"businessTitle","name":"businessTitle"},
                                          {"value":"carrierRouteDiscount","name":"carrierRouteDiscount"},
                                          {"value":"childrenCount","name":"childrenCount"},
										  {"value":"childrenInd","name":"childrenInd"},
                                          {"value":"city","name":"city"},
                                          {"value":"cityStateZip","name":"cityStateZip"},
                                          {"value":"company","name":"company"},
                                          {"value":"compTitle","name":"compTitle"}, 
                                          {"value":"countyFips","name":"countyFips"}, 
                                          {"value":"crrt","name":"crrt"},
                                          {"value":"crrtType","name":"crrtType"},
                                          {"value":"custCode","name":"custCode"},
                                          {"value":"custData","name":"custData"},
                                          {"value":"custdata1","name":"custdata1"},
                                          {"value":"custdata10","name":"custdata10"},
                                          {"value":"custdata11","name":"custdata11"}, 
                                          {"value":"custdata12","name":"custdata12"},
                                          {"value":"custdata13","name":"custdata13"},
                                          {"value":"custdata14","name":"custdata14"},
                                          {"value":"custdata15","name":"custdata15"},
                                          {"value":"custdata16","name":"custdata16"},
                                          {"value":"custdata17","name":"custdata17"},
                                          {"value":"custdata18","name":"custdata18"},
                                          {"value":"custdata19","name":"custdata19"},
                                          {"value":"custdata2","name":"custdata2"},
                                          {"value":"custdata20","name":"custdata20"},
                                          {"value":"custdata3","name":"custdata3"},
                                          {"value":"custdata4","name":"custdata4"},
                                          {"value":"custdata5","name":"custdata5"},
                                          {"value":"custdata6","name":"custdata6"},
                                          {"value":"custdata7","name":"custdata7"},
                                          {"value":"custdata8","name":"custdata8"},
                                          {"value":"custdata9","name":"custdata9"},
                                          {"value":"custNumber","name":"custNumber"},
										  {"value":"destinationDiscount","name":"destinationDiscount"},
                                          {"value":"distance","name":"distance"},
                                          {"value":"division","name":"division"}, 
                                          {"value":"divisionId","name":"divisionId"},
                                          {"value":"dpbc","name":"dpbc"},
                                          {"value":"dropEntryPoint","name":"dropEntryPoint"},
                                          {"value":"dwellingType","name":"dwellingType"},
                                          {"value":"educationHH","name":"educationHH"},
                                          {"value":"educationInputIndividual","name":"educationInputIndividual"},
                                          {"value":"email","name":"email"},
                                          {"value":"emailStatusLevel","name":"emailStatusLevel"},
                                          {"value":"enhancedSubDiscount","name":"enhancedSubDiscount"},
                                          {"value":"eofIndicator","name":"eofIndicator"},
                                          {"value":"estIncomeCode","name":"estIncomeCode"},
                                          {"value":"estIncomeRange","name":"estIncomeRange"},
                                          {"value":"estIncomeRangeHigh","name":"estIncomeRangeHigh"},
                                          {"value":"ethnicity","name":"ethnicity"},
                                          {"value":"ethnicRollupCode","name":"ethnicRollupCode"},
                                          {"value":"fileCode","name":"fileCode"},
                                          {"value":"filePk","name":"filePk"},
										  {"value":"firstName","name":"firstName"},
                                          {"value":"ftaxMgtAgentId","name":"ftaxMgtAgentId"},
                                          {"value":"fullCompanyName","name":"fullCompanyName"},
                                          {"value":"fullCompanyTitle","name":"fullCompanyTitle"},
                                          {"value":"fullName","name":"fullName"},
                                          {"value":"gender","name":"gender"},
                                          {"value":"geoLevel","name":"geoLevel"}, 
                                          {"value":"globalInd","name":"globalInd"}, 
                                          {"value":"homeMarketvalue","name":"homeMarketvalue"},
                                          {"value":"homeOwner","name":"homeOwner"},
                                          {"value":"homeOwnerIndicator","name":"homeOwnerIndicator"},
                                          {"value":"homePhone","name":"homePhone"},
                                          {"value":"homevalue","name":"homevalue"},
                                          {"value":"houseHoldStatus","name":"houseHoldStatus"},
                                          {"value":"imb","name":"imb"},
                                          {"value":"ioDumpFlag","name":"ioDumpFlag"},
                                          {"value":"languagePref","name":"languagePref"},
                                          {"value":"laserCodeK","name":"laserCodeK"},
                                          {"value":"lastName","name":"lastName"},
                                          {"value":"Latitude","name":"Latitude"},
                                          {"value":"Longitude","name":"Longitude"},
                                          {"value":"lotAD","name":"lotAD"},
                                          {"value":"lotCode","name":"lotCode"}, 
                                          {"value":"machineUspsSortFlag","name":"machineUspsSortFlag"},
                                          {"value":"maritalStatus","name":"maritalStatus"},
                                          {"value":"middleName","name":"middleName"},
                                          {"value":"ncoaActionCode","name":"ncoaActionCode"},
                                          {"value":"ncoaLink","name":"ncoaLink"},
                                          {"value":"ndbMatchLevel","name":"ndbMatchLevel"},
                                          {"value":"netWorth","name":"netWorth"},
                                          {"value":"optionalEndorsement","name":"optionalEndorsement"},
                                          {"value":"pieceId","name":"pieceId"},
                                          {"value":"piecePostage","name":"piecePostage"},
                                          {"value":"planetCode","name":"planetCode"},
                                          {"value":"preSortGroupInd","name":"preSortGroupInd"},
                                          {"value":"pricingTier","name":"pricingTier"},
                                          {"value":"priorityLevel","name":"priorityLevel"},
                                          {"value":"prizmCode","name":"prizmCode"},
                                          {"value":"prizmCodeIndicator","name":"prizmCodeIndicator"},
                                          {"value":"promotionKey","name":"promotionKey"},
                                          {"value":"promotionWeek","name":"promotionWeek"},
                                          {"value":"rateClass","name":"rateClass"},
                                          {"value":"ReferenceSequenceNumber","name":"ReferenceSequenceNumber"},
                                          {"value":"residenceLength","name":"residenceLength"},
                                          {"value":"sampleFlag","name":"sampleFlag"},
                                          {"value":"sampleSet","name":"sampleSet"},
                                          {"value":"seedIndicator","name":"seedIndicator"},
                                          {"value":"sortPreSortGroupInd","name":"sortPreSortGroupInd"},
                                          {"value":"sourcePk","name":"sourcePk"},
										  {"value":"standardPkNcoa","name":"standardPkNcoa"},
                                          {"value":"state","name":"state"},
                                          {"value":"storeNumber","name":"storeNumber"},
                                          {"value":"streetName","name":"streetName"},
                                          {"value":"suffix","name":"suffix"}, 
                                          {"value":"tadf","name":"tadf"},
                                          {"value":"title","name":"title"},
                                          {"value":"travel","name":"travel"},
                                          {"value":"userId","name":"userId"},
                                          {"value":"versionCode","name":"versionCode"},
                                          {"value":"versionCodeOrig","name":"versionCodeOrig"},
                                          {"value":"walkSequence","name":"walkSequence"},
                                          {"value":"zip","name":"zip"}
                                         
]
}
]
