[
    {
        "list": "Production",
        "weeks": [
            {
                "inHomeDate": "10/28/2013",
                "weekNo": "1",
                "targetType": "Acquisition"
            },
            {
                "inHomeDate": "11/04/2013",
                "weekNo": "2",
                "targetType": "Migration"
            },
            {
                "inHomeDate": "11/11/2013",
                "weekNo": "3",
                "targetType": "Migration"
            },
            {
                "inHomeDate": "11/18/2013",
                "weekNo": "4",
                "targetType": "Acquisition"
            }
        ]
    },
    {
        "list": "MailTracker",
        "weeks": [
            {
                "inHomeDate": "10/28/2013",
                "weekNo": "1",
                "targetType": "Acquisition"
            },
            {
                "inHomeDate": "11/04/2013",
                "weekNo": "2",
                "targetType": "Migration"
            },
            {
                "inHomeDate": "11/11/2013",
                "weekNo": "3",
                "targetType": "Migration"
            },
            {
                "inHomeDate": "11/18/2013",
                "weekNo": "4",
                "targetType": "Acquisition"
            }
        ]
    }
]