{
    "publicationNamesDict": [
        {
            "name": "STMG Publication Name1",
            "importListDict": [
                {
                    "importListName": "Import Version",
                    "versionNumber": "1.6",
                    "versionCreated": "12/9/14 11:24:57",
                    "versionOrders": [
                        {
                            "versionOrderName": "BESTBUY-03",
                            "attributes": [
                                {
                                    "name": "Ref#",
                                    "value": "12142014_113200"
                                },
                                {
                                    "name": "Transaction Code",
                                    "value": "A"
                                },
                                {
                                    "name": "Credit Flag",
                                    "value": "C"
                                },
                                {
                                    "name": "Credit Flag",
                                    "value": "C"
                                },
                                {
                                    "name": "Acct #",
                                    "value": "100152701"
                                },
                                {
                                    "name": "Agency",
                                    "value": "STMG"
                                },
                                {
                                    "name": "Issue Date",
                                    "value": "12/14/2014"
                                },
                                {
                                    "name": "Product",
                                    "value": "BESTBUY-03"
                                },
                                {
                                    "name": "Desc",
                                    "value": "ABN BEST BUY V25"
                                },
                                {
                                    "name": "Pg Type",
                                    "value": "T"
                                },
                                {
                                    "name": "Pg Count",
                                    "value": "24"
                                },
                                {
                                    "name": "Wgt",
                                    "value": "0"
                                },
                                {
                                    "name": "Qty",
                                    "value": "9519"
                                }
                            ]
                        },
                        {
                            "versionOrderName": "BIG LOTS-01",
                            "attributes": [
                                {
                                    "name": "Ref#",
                                    "value": "12142014_113200"
                                },
                                {
                                    "name": "Transaction Code",
                                    "value": "A"
                                },
                                {
                                    "name": "Credit Flag",
                                    "value": "C"
                                },
                                {
                                    "name": "Credit Flag",
                                    "value": "C"
                                },
                                {
                                    "name": "Acct #",
                                    "value": "100152701"
                                },
                                {
                                    "name": "Agency",
                                    "value": "STMG"
                                },
                                {
                                    "name": "Issue Date",
                                    "value": "12/14/2014"
                                },
                                {
                                    "name": "Product",
                                    "value": "BESTBUY-03"
                                },
                                {
                                    "name": "Desc",
                                    "value": "ABN BEST BUY V25"
                                },
                                {
                                    "name": "Pg Type",
                                    "value": "T"
                                },
                                {
                                    "name": "Pg Count",
                                    "value": "24"
                                },
                                {
                                    "name": "Wgt",
                                    "value": "0"
                                },
                                {
                                    "name": "Qty",
                                    "value": "9519"
                                }
                            ]
                        }
                    ],
                    "summaryRecords": [
                        {
                            "name": "Order Records",
                            "value": "100"
                        },
                        {
                            "name": "Distr Records",
                            "value": "17959"
                        },
                        {
                            "name": "Demo Records",
                            "value": "0"
                        },
                        {
                            "name": "Total",
                            "value": "185556"
                        }
                    ]
                },
                {
                    "importListName": "Import Version",
                    "versionNumber": "1.4",
                    "versionCreated": "12/9/14 11:24:57",
                    "versionOrders": [
                        {
                            "versionOrderName": "CARSONS-05",
                            "attributes": [
                                {
                                    "name": "Ref#",
                                    "value": "12142014_113200"
                                },
                                {
                                    "name": "Transaction Code",
                                    "value": "A"
                                },
                                {
                                    "name": "Credit Flag",
                                    "value": "C"
                                },
                                {
                                    "name": "Credit Flag",
                                    "value": "C"
                                },
                                {
                                    "name": "Acct #",
                                    "value": "100152701"
                                },
                                {
                                    "name": "Agency",
                                    "value": "STMG"
                                },
                                {
                                    "name": "Issue Date",
                                    "value": "12/14/2014"
                                },
                                {
                                    "name": "Product",
                                    "value": "BESTBUY-03"
                                },
                                {
                                    "name": "Desc",
                                    "value": "ABN BEST BUY V25"
                                },
                                {
                                    "name": "Pg Type",
                                    "value": "T"
                                },
                                {
                                    "name": "Pg Count",
                                    "value": "24"
                                },
                                {
                                    "name": "Wgt",
                                    "value": "0"
                                },
                                {
                                    "name": "Qty",
                                    "value": "9519"
                                }
                            ]
                        },
                        {
                            "versionOrderName": "CVS-05",
                            "attributes": [
                                {
                                    "name": "Ref#",
                                    "value": "12142014_113200"
                                },
                                {
                                    "name": "Transaction Code",
                                    "value": "A"
                                },
                                {
                                    "name": "Credit Flag",
                                    "value": "C"
                                },
                                {
                                    "name": "Credit Flag",
                                    "value": "C"
                                },
                                {
                                    "name": "Acct #",
                                    "value": "100152701"
                                },
                                {
                                    "name": "Agency",
                                    "value": "STMG"
                                },
                                {
                                    "name": "Issue Date",
                                    "value": "12/14/2014"
                                },
                                {
                                    "name": "Product",
                                    "value": "BESTBUY-03"
                                },
                                {
                                    "name": "Desc",
                                    "value": "ABN BEST BUY V25"
                                },
                                {
                                    "name": "Pg Type",
                                    "value": "T"
                                },
                                {
                                    "name": "Pg Count",
                                    "value": "24"
                                },
                                {
                                    "name": "Wgt",
                                    "value": "0"
                                },
                                {
                                    "name": "Qty",
                                    "value": "9519"
                                }
                            ]
                        }
                    ],
                    "summaryRecords": [
                        {
                            "name": "Order Records",
                            "value": "100"
                        },
                        {
                            "name": "Distr Records",
                            "value": "17959"
                        },
                        {
                            "name": "Demo Records",
                            "value": "0"
                        },
                        {
                            "name": "Total",
                            "value": "185556"
                        }
                    ]
                }
            ]
        },
        {
            "name": "STMG Publication Name2",
            "importListDict": [
                {
                    "importListName": "Import Version",
                    "versionNumber": "1.6",
                    "versionCreated": "12/9/14 11:24:57",
                    "versionOrders": [
                        {
                            "versionOrderName": "DICKSSPORTS-03",
                            "attributes": [
                                {
                                    "name": "Ref#",
                                    "value": "12142014_113200"
                                },
                                {
                                    "name": "Transaction Code",
                                    "value": "A"
                                },
                                {
                                    "name": "Credit Flag",
                                    "value": "C"
                                },
                                {
                                    "name": "Credit Flag",
                                    "value": "C"
                                },
                                {
                                    "name": "Acct #",
                                    "value": "100152701"
                                },
                                {
                                    "name": "Agency",
                                    "value": "STMG"
                                },
                                {
                                    "name": "Issue Date",
                                    "value": "12/14/2014"
                                },
                                {
                                    "name": "Product",
                                    "value": "BESTBUY-03"
                                },
                                {
                                    "name": "Desc",
                                    "value": "ABN BEST BUY V25"
                                },
                                {
                                    "name": "Pg Type",
                                    "value": "T"
                                },
                                {
                                    "name": "Pg Count",
                                    "value": "24"
                                },
                                {
                                    "name": "Wgt",
                                    "value": "0"
                                },
                                {
                                    "name": "Qty",
                                    "value": "9519"
                                }
                            ]
                        },
                        {
                            "versionOrderName": "DIRECTVCJ-01",
                            "attributes": [
                                {
                                    "name": "Ref#",
                                    "value": "12142014_113200"
                                },
                                {
                                    "name": "Transaction Code",
                                    "value": "A"
                                },
                                {
                                    "name": "Credit Flag",
                                    "value": "C"
                                },
                                {
                                    "name": "Credit Flag",
                                    "value": "C"
                                },
                                {
                                    "name": "Acct #",
                                    "value": "100152701"
                                },
                                {
                                    "name": "Agency",
                                    "value": "STMG"
                                },
                                {
                                    "name": "Issue Date",
                                    "value": "12/14/2014"
                                },
                                {
                                    "name": "Product",
                                    "value": "BESTBUY-03"
                                },
                                {
                                    "name": "Desc",
                                    "value": "ABN BEST BUY V25"
                                },
                                {
                                    "name": "Pg Type",
                                    "value": "T"
                                },
                                {
                                    "name": "Pg Count",
                                    "value": "24"
                                },
                                {
                                    "name": "Wgt",
                                    "value": "0"
                                },
                                {
                                    "name": "Qty",
                                    "value": "9519"
                                }
                            ]
                        }
                    ],
                    "summaryRecords": [
                        {
                            "name": "Order Records",
                            "value": "100"
                        },
                        {
                            "name": "Distr Records",
                            "value": "17959"
                        },
                        {
                            "name": "Demo Records",
                            "value": "0"
                        },
                        {
                            "name": "Total",
                            "value": "185556"
                        }
                    ]
                },
                {
                    "importListName": "Import Version",
                    "versionNumber": "1.5",
                    "versionCreated": "12/9/14 11:24:57",
                    "versionOrders": [
                        {
                            "versionOrderName": "BESTBUY-03",
                            "attributes": [
                                {
                                    "name": "Ref#",
                                    "value": "12142014_113200"
                                },
                                {
                                    "name": "Transaction Code",
                                    "value": "A"
                                },
                                {
                                    "name": "Credit Flag",
                                    "value": "C"
                                },
                                {
                                    "name": "Credit Flag",
                                    "value": "C"
                                },
                                {
                                    "name": "Acct #",
                                    "value": "100152701"
                                },
                                {
                                    "name": "Agency",
                                    "value": "STMG"
                                },
                                {
                                    "name": "Issue Date",
                                    "value": "12/14/2014"
                                },
                                {
                                    "name": "Product",
                                    "value": "BESTBUY-03"
                                },
                                {
                                    "name": "Desc",
                                    "value": "ABN BEST BUY V25"
                                },
                                {
                                    "name": "Pg Type",
                                    "value": "T"
                                },
                                {
                                    "name": "Pg Count",
                                    "value": "24"
                                },
                                {
                                    "name": "Wgt",
                                    "value": "0"
                                },
                                {
                                    "name": "Qty",
                                    "value": "9519"
                                }
                            ]
                        },
                        {
                            "versionOrderName": "BIG LOTS-03",
                            "attributes": [
                                {
                                    "name": "Ref#",
                                    "value": "12142014_113200"
                                },
                                {
                                    "name": "Transaction Code",
                                    "value": "A"
                                },
                                {
                                    "name": "Credit Flag",
                                    "value": "C"
                                },
                                {
                                    "name": "Credit Flag",
                                    "value": "C"
                                },
                                {
                                    "name": "Acct #",
                                    "value": "100152701"
                                },
                                {
                                    "name": "Agency",
                                    "value": "STMG"
                                },
                                {
                                    "name": "Issue Date",
                                    "value": "12/14/2014"
                                },
                                {
                                    "name": "Product",
                                    "value": "BESTBUY-03"
                                },
                                {
                                    "name": "Desc",
                                    "value": "ABN BEST BUY V25"
                                },
                                {
                                    "name": "Pg Type",
                                    "value": "T"
                                },
                                {
                                    "name": "Pg Count",
                                    "value": "24"
                                },
                                {
                                    "name": "Wgt",
                                    "value": "0"
                                },
                                {
                                    "name": "Qty",
                                    "value": "9519"
                                }
                            ]
                        }
                    ],
                    "summaryRecords": [
                        {
                            "name": "Order Records",
                            "value": "100"
                        },
                        {
                            "name": "Distr Records",
                            "value": "17959"
                        },
                        {
                            "name": "Demo Records",
                            "value": "0"
                        },
                        {
                            "name": "Total",
                            "value": "185556"
                        }
                    ]
                }
            ]
        },
        {
            "name": "STMG Publication Name3",
            "importListDict": [
                {
                    "importListName": "Import Version",
                    "versionNumber": "1.6",
                    "versionCreated": "12/9/14 11:24:57",
                    "versionOrders": [
                        {
                            "versionOrderName": "CVS-06",
                            "attributes": [
                                {
                                    "name": "Ref#",
                                    "value": "12142014_113200"
                                },
                                {
                                    "name": "Transaction Code",
                                    "value": "A"
                                },
                                {
                                    "name": "Credit Flag",
                                    "value": "C"
                                },
                                {
                                    "name": "Credit Flag",
                                    "value": "C"
                                },
                                {
                                    "name": "Acct #",
                                    "value": "100152701"
                                },
                                {
                                    "name": "Agency",
                                    "value": "STMG"
                                },
                                {
                                    "name": "Issue Date",
                                    "value": "12/14/2014"
                                },
                                {
                                    "name": "Product",
                                    "value": "BESTBUY-03"
                                },
                                {
                                    "name": "Desc",
                                    "value": "ABN BEST BUY V25"
                                },
                                {
                                    "name": "Pg Type",
                                    "value": "T"
                                },
                                {
                                    "name": "Pg Count",
                                    "value": "24"
                                },
                                {
                                    "name": "Wgt",
                                    "value": "0"
                                },
                                {
                                    "name": "Qty",
                                    "value": "9519"
                                }
                            ]
                        },
                        {
                            "versionOrderName": "DIRECTVCJ-09",
                            "attributes": [
                                {
                                    "name": "Ref#",
                                    "value": "12142014_113200"
                                },
                                {
                                    "name": "Transaction Code",
                                    "value": "A"
                                },
                                {
                                    "name": "Credit Flag",
                                    "value": "C"
                                },
                                {
                                    "name": "Credit Flag",
                                    "value": "C"
                                },
                                {
                                    "name": "Acct #",
                                    "value": "100152701"
                                },
                                {
                                    "name": "Agency",
                                    "value": "STMG"
                                },
                                {
                                    "name": "Issue Date",
                                    "value": "12/14/2014"
                                },
                                {
                                    "name": "Product",
                                    "value": "BESTBUY-03"
                                },
                                {
                                    "name": "Desc",
                                    "value": "ABN BEST BUY V25"
                                },
                                {
                                    "name": "Pg Type",
                                    "value": "T"
                                },
                                {
                                    "name": "Pg Count",
                                    "value": "24"
                                },
                                {
                                    "name": "Wgt",
                                    "value": "0"
                                },
                                {
                                    "name": "Qty",
                                    "value": "9519"
                                }
                            ]
                        }
                    ],
                    "summaryRecords": [
                        {
                            "name": "Order Records",
                            "value": "100"
                        },
                        {
                            "name": "Distr Records",
                            "value": "17959"
                        },
                        {
                            "name": "Demo Records",
                            "value": "0"
                        },
                        {
                            "name": "Total",
                            "value": "185556"
                        }
                    ]
                },
                {
                    "importListName": "Import Version",
                    "versionNumber": "1.1",
                    "versionCreated": "12/9/14 11:24:57",
                    "versionOrders": [
                        {
                            "versionOrderName": "CARSONS-03",
                            "attributes": [
                                {
                                    "name": "Ref#",
                                    "value": "12142014_113200"
                                },
                                {
                                    "name": "Transaction Code",
                                    "value": "A"
                                },
                                {
                                    "name": "Credit Flag",
                                    "value": "C"
                                },
                                {
                                    "name": "Credit Flag",
                                    "value": "C"
                                },
                                {
                                    "name": "Acct #",
                                    "value": "100152701"
                                },
                                {
                                    "name": "Agency",
                                    "value": "STMG"
                                },
                                {
                                    "name": "Issue Date",
                                    "value": "12/14/2014"
                                },
                                {
                                    "name": "Product",
                                    "value": "BESTBUY-03"
                                },
                                {
                                    "name": "Desc",
                                    "value": "ABN BEST BUY V25"
                                },
                                {
                                    "name": "Pg Type",
                                    "value": "T"
                                },
                                {
                                    "name": "Pg Count",
                                    "value": "24"
                                },
                                {
                                    "name": "Wgt",
                                    "value": "0"
                                },
                                {
                                    "name": "Qty",
                                    "value": "9519"
                                }
                            ]
                        },
                        {
                            "versionOrderName": "BESTBUY-03",
                            "attributes": [
                                {
                                    "name": "Ref#",
                                    "value": "12142014_113200"
                                },
                                {
                                    "name": "Transaction Code",
                                    "value": "A"
                                },
                                {
                                    "name": "Credit Flag",
                                    "value": "C"
                                },
                                {
                                    "name": "Credit Flag",
                                    "value": "C"
                                },
                                {
                                    "name": "Acct #",
                                    "value": "100152701"
                                },
                                {
                                    "name": "Agency",
                                    "value": "STMG"
                                },
                                {
                                    "name": "Issue Date",
                                    "value": "12/14/2014"
                                },
                                {
                                    "name": "Product",
                                    "value": "BESTBUY-03"
                                },
                                {
                                    "name": "Desc",
                                    "value": "ABN BEST BUY V25"
                                },
                                {
                                    "name": "Pg Type",
                                    "value": "T"
                                },
                                {
                                    "name": "Pg Count",
                                    "value": "24"
                                },
                                {
                                    "name": "Wgt",
                                    "value": "0"
                                },
                                {
                                    "name": "Qty",
                                    "value": "9519"
                                }
                            ]
                        },
                        {
                            "versionOrderName": "BESTBUY-03",
                            "attributes": [
                                {
                                    "name": "Ref#",
                                    "value": "12142014_113200"
                                },
                                {
                                    "name": "Transaction Code",
                                    "value": "A"
                                },
                                {
                                    "name": "Credit Flag",
                                    "value": "C"
                                },
                                {
                                    "name": "Credit Flag",
                                    "value": "C"
                                },
                                {
                                    "name": "Acct #",
                                    "value": "100152701"
                                },
                                {
                                    "name": "Agency",
                                    "value": "STMG"
                                },
                                {
                                    "name": "Issue Date",
                                    "value": "12/14/2014"
                                },
                                {
                                    "name": "Product",
                                    "value": "BESTBUY-03"
                                },
                                {
                                    "name": "Desc",
                                    "value": "ABN BEST BUY V25"
                                },
                                {
                                    "name": "Pg Type",
                                    "value": "T"
                                },
                                {
                                    "name": "Pg Count",
                                    "value": "24"
                                },
                                {
                                    "name": "Wgt",
                                    "value": "0"
                                },
                                {
                                    "name": "Qty",
                                    "value": "9519"
                                }
                            ]
                        }
                    ],
                    "summaryRecords": [
                        {
                            "name": "Order Records",
                            "value": "100"
                        },
                        {
                            "name": "Distr Records",
                            "value": "17959"
                        },
                        {
                            "name": "Demo Records",
                            "value": "0"
                        },
                        {
                            "name": "Total",
                            "value": "185556"
                        }
                    ]
                }
            ]
        }
    ]
}