{
    "zips": [        
        {
            "crrts": [
                {
                    "crrtName": "C001",
                    "available": 531,
                    "targeted": 0,
                    "isChecked": 0,
                    "selectType": null
                },
                {
                    "crrtName": "C002",
                    "available": 510,
                    "targeted": 0,
                    "isChecked": 0,
                    "selectType": null
                },
                {
                    "crrtName": "C003",
                    "available": 639,
                    "targeted": 0,
                    "isChecked": 0,
                    "selectType": null
                },
                {
                    "crrtName": "C004",
                    "available": 391,
                    "targeted": 0,
                    "isChecked": 0,
                    "selectType": null
                },
                {
                    "crrtName": "C005",
                    "available": 529,
                    "targeted": 0,
                    "isChecked": 0,
                    "selectType": null
                },
                {
                    "crrtName": "C006",
                    "available": 402,
                    "targeted": 0,
                    "isChecked": 0,
                    "selectType": null
                },
                {
                    "crrtName": "C007",
                    "available": 460,
                    "targeted": 0,
                    "isChecked": 0,
                    "selectType": null
                },
                {
                    "crrtName": "R001",
                    "available": 471,
                    "targeted": 0,
                    "isChecked": 0,
                    "selectType": null
                },
                {
                    "crrtName": "R002",
                    "available": 599,
                    "targeted": 0,
                    "isChecked": 0,
                    "selectType": null
                },
                {
                    "crrtName": "R003",
                    "available": 681,
                    "targeted": 0,
                    "isChecked": 0,
                    "selectType": null
                },
                {
                    "crrtName": "R004",
                    "available": 596,
                    "targeted": 0,
                    "isChecked": 0,
                    "selectType": null
                },
                {
                    "crrtName": "R005",
                    "available": 553,
                    "targeted": 25,
                    "isChecked": 0,
                    "selectType": null
                },
                {
                    "crrtName": "R006",
                    "available": 572,
                    "targeted": 50,
                    "isChecked": 0,
                    "selectType": null
                },
                {
                    "crrtName": "R007",
                    "available": 848,
                    "targeted": 30,
                    "isChecked": 0,
                    "selectType": null
                },
                {
                    "crrtName": "R008",
                    "available": 555,
                    "targeted": 0,
                    "isChecked": 0,
                    "selectType": null
                }
            ],
            "isChecked": 0,
            "zipCode": 60178,
            "zipName": "Sycamore",
            "available": 8337,
            "alsoInStore": null
        },
        {
            "crrts": [
                {
                    "crrtName": "C001",
                    "available": 163,
                    "targeted": 0,
                    "isChecked": 0,
                    "selectType": null
                },
                {
                    "crrtName": "C002",
                    "available": 334,
                    "targeted": 0,
                    "isChecked": 0,
                    "selectType": null
                },
                {
                    "crrtName": "C003",
                    "available": 477,
                    "targeted": 0,
                    "isChecked": 0,
                    "selectType": null
                },
                {
                    "crrtName": "C004",
                    "available": 581,
                    "targeted": 0,
                    "isChecked": 0,
                    "selectType": null
                },
                {
                    "crrtName": "C005",
                    "available": 478,
                    "targeted": 0,
                    "isChecked": 0,
                    "selectType": null
                },
                {
                    "crrtName": "C006",
                    "available": 251,
                    "targeted": 0,
                    "isChecked": 0,
                    "selectType": null
                },
                {
                    "crrtName": "C007",
                    "available": 433,
                    "targeted": 0,
                    "isChecked": 0,
                    "selectType": null
                },
                {
                    "crrtName": "C009",
                    "available": 405,
                    "targeted": 0,
                    "isChecked": 0,
                    "selectType": null
                },
                {
                    "crrtName": "C010",
                    "available": 386,
                    "targeted": 0,
                    "isChecked": 0,
                    "selectType": null
                },
                {
                    "crrtName": "C011",
                    "available": 351,
                    "targeted": 0,
                    "isChecked": 0,
                    "selectType": null
                },
                {
                    "crrtName": "C012",
                    "available": 377,
                    "targeted": 0,
                    "isChecked": 0,
                    "selectType": null
                },
                {
                    "crrtName": "C013",
                    "available": 285,
                    "targeted": 0,
                    "isChecked": 0,
                    "selectType": null
                },
                {
                    "crrtName": "C014",
                    "available": 389,
                    "targeted": 0,
                    "isChecked": 0,
                    "selectType": null
                },
                {
                    "crrtName": "C015",
                    "available": 334,
                    "targeted": 334,
                    "isChecked": 1,
                    "selectType": null
                },
                {
                    "crrtName": "C016",
                    "available": 432,
                    "targeted": 0,
                    "isChecked": 0,
                    "selectType": null
                },
                {
                    "crrtName": "C017",
                    "available": 391,
                    "targeted": 391,
                    "isChecked": 1,
                    "selectType": null
                },
                {
                    "crrtName": "C018",
                    "available": 375,
                    "targeted": 0,
                    "isChecked": 0,
                    "selectType": null
                },
                {
                    "crrtName": "C019",
                    "available": 343,
                    "targeted": 0,
                    "isChecked": 0,
                    "selectType": null
                },
                {
                    "crrtName": "C020",
                    "available": 362,
                    "targeted": 0,
                    "isChecked": 0,
                    "selectType": null
                },
                {
                    "crrtName": "C021",
                    "available": 321,
                    "targeted": 0,
                    "isChecked": 0,
                    "selectType": null
                },
                {
                    "crrtName": "C022",
                    "available": 297,
                    "targeted": 0,
                    "isChecked": 0,
                    "selectType": null
                },
                {
                    "crrtName": "C024",
                    "available": 481,
                    "targeted": 481,
                    "isChecked": 1,
                    "selectType": null
                },
                {
                    "crrtName": "C025",
                    "available": 182,
                    "targeted": 0,
                    "isChecked": 0,
                    "selectType": null
                },
                {
                    "crrtName": "R002",
                    "available": 408,
                    "targeted": 0,
                    "isChecked": 0,
                    "selectType": null
                },
                {
                    "crrtName": "R003",
                    "available": 282,
                    "targeted": 0,
                    "isChecked": 0,
                    "selectType": null
                },
                {
                    "crrtName": "R004",
                    "available": 674,
                    "targeted": 0,
                    "isChecked": 0,
                    "selectType": null
                },
                {
                    "crrtName": "R005",
                    "available": 551,
                    "targeted": 0,
                    "isChecked": 0,
                    "selectType": null
                },
                {
                    "crrtName": "R006",
                    "available": 817,
                    "targeted": 817,
                    "isChecked": 1,
                    "selectType": null
                },
                {
                    "crrtName": "R007",
                    "available": 390,
                    "targeted": 0,
                    "isChecked": 0,
                    "selectType": null
                }
            ],
            "isChecked": 0,
            "zipCode": 60115,
            "zipName": "DeKalb",
            "available": 11550,
            "alsoInStore": null
        }
    ]
}