[{
	"columnName": "_4151",
	"columnDescription": "Two Year Age Range",
	"value": "",
	"valueDescription": "unknown",
	"selector": "",
	"menuType": "multiselect"
}, {
	"columnName": "_4151",
	"columnDescription": "Two Year Age Range",
	"value": "17",
	"valueDescription": "Age less than 18",
	"selector": "",
	"menuType": "multiselect"
}, {
	"columnName": "_4151",
	"columnDescription": "Two Year Age Range",
	"value": "18",
	"valueDescription": "Age 18 - 19",
	"selector": "",
	"menuType": "multiselect"
}, {
	"columnName": "_4151",
	"columnDescription": "Two Year Age Range",
	"value": "20",
	"valueDescription": "Age 20 - 21",
	"selector": "",
	"menuType": "multiselect"
}, {
	"columnName": "_4151",
	"columnDescription": "Two Year Age Range",
	"value": "22",
	"valueDescription": "Age 22 - 23",
	"selector": "",
	"menuType": "multiselect"
}, {
	"columnName": "_4151",
	"columnDescription": "Two Year Age Range",
	"value": "24",
	"valueDescription": "Age 24 - 25",
	"selector": "",
	"menuType": "multiselect"
}, {
	"columnName": "_4151",
	"columnDescription": "Two Year Age Range",
	"value": "26",
	"valueDescription": "Age 26 - 27",
	"selector": "",
	"menuType": "multiselect"
}, {
	"columnName": "_4151",
	"columnDescription": "Two Year Age Range",
	"value": "28",
	"valueDescription": "Age 28 - 29",
	"selector": "",
	"menuType": "multiselect"
}, {
	"columnName": "_4151",
	"columnDescription": "Two Year Age Range",
	"value": "30",
	"valueDescription": "Age 30 - 31",
	"selector": "",
	"menuType": "multiselect"
}, {
	"columnName": "_4151",
	"columnDescription": "Two Year Age Range",
	"value": "32",
	"valueDescription": "Age 32 - 33",
	"selector": "",
	"menuType": "multiselect"
}, {
	"columnName": "_4151",
	"columnDescription": "Two Year Age Range",
	"value": "34",
	"valueDescription": "Age 34 - 35",
	"selector": "",
	"menuType": "multiselect"
}, {
	"columnName": "_4151",
	"columnDescription": "Two Year Age Range",
	"value": "36",
	"valueDescription": "Age 36 - 37",
	"selector": "",
	"menuType": "multiselect"
}, {
	"columnName": "_4151",
	"columnDescription": "Two Year Age Range",
	"value": "38",
	"valueDescription": "Age 38 - 39",
	"selector": "",
	"menuType": "multiselect"
}, {
	"columnName": "_4151",
	"columnDescription": "Two Year Age Range",
	"value": "40",
	"valueDescription": "Age 40 - 41",
	"selector": "",
	"menuType": "multiselect"
}, {
	"columnName": "_4151",
	"columnDescription": "Two Year Age Range",
	"value": "42",
	"valueDescription": "Age 42 - 43",
	"selector": "",
	"menuType": "multiselect"
}, {
	"columnName": "_4151",
	"columnDescription": "Two Year Age Range",
	"value": "44",
	"valueDescription": "Age 44 - 45",
	"selector": "",
	"menuType": "multiselect"
}, {
	"columnName": "_4151",
	"columnDescription": "Two Year Age Range",
	"value": "46",
	"valueDescription": "Age 46 - 47",
	"selector": "",
	"menuType": "multiselect"
}, {
	"columnName": "_4151",
	"columnDescription": "Two Year Age Range",
	"value": "48",
	"valueDescription": "Age 48 - 49",
	"selector": "",
	"menuType": "multiselect"
}, {
	"columnName": "_4151",
	"columnDescription": "Two Year Age Range",
	"value": "50",
	"valueDescription": "Age 50 - 51",
	"selector": "",
	"menuType": "multiselect"
}, {
	"columnName": "_4151",
	"columnDescription": "Two Year Age Range",
	"value": "52",
	"valueDescription": "Age 52 - 53",
	"selector": "",
	"menuType": "multiselect"
}, {
	"columnName": "_4151",
	"columnDescription": "Two Year Age Range",
	"value": "54",
	"valueDescription": "Age 54 - 55",
	"selector": "",
	"menuType": "multiselect"
}, {
	"columnName": "_4151",
	"columnDescription": "Two Year Age Range",
	"value": "56",
	"valueDescription": "Age 56 - 57",
	"selector": "",
	"menuType": "multiselect"
}, {
	"columnName": "_4151",
	"columnDescription": "Two Year Age Range",
	"value": "58",
	"valueDescription": "Age 58 - 59",
	"selector": "",
	"menuType": "multiselect"
}, {
	"columnName": "_4151",
	"columnDescription": "Two Year Age Range",
	"value": "60",
	"valueDescription": "Age 60 - 61",
	"selector": "",
	"menuType": "multiselect"
}, {
	"columnName": "_4151",
	"columnDescription": "Two Year Age Range",
	"value": "62",
	"valueDescription": "Age 62 - 63",
	"selector": "",
	"menuType": "multiselect"
}, {
	"columnName": "_4151",
	"columnDescription": "Two Year Age Range",
	"value": "64",
	"valueDescription": "Age 64 - 65",
	"selector": "",
	"menuType": "multiselect"
}, {
	"columnName": "_4151",
	"columnDescription": "Two Year Age Range",
	"value": "66",
	"valueDescription": "Age 66 - 67",
	"selector": "",
	"menuType": "multiselect"
}, {
	"columnName": "_4151",
	"columnDescription": "Two Year Age Range",
	"value": "68",
	"valueDescription": "Age 68 - 69",
	"selector": "",
	"menuType": "multiselect"
}, {
	"columnName": "_4151",
	"columnDescription": "Two Year Age Range",
	"value": "70",
	"valueDescription": "Age 70 - 71",
	"selector": "",
	"menuType": "multiselect"
}, {
	"columnName": "_4151",
	"columnDescription": "Two Year Age Range",
	"value": "72",
	"valueDescription": "Age 72 - 73",
	"selector": "",
	"menuType": "multiselect"
}, {
	"columnName": "_4151",
	"columnDescription": "Two Year Age Range",
	"value": "74",
	"valueDescription": "Age 74 - 75",
	"selector": "",
	"menuType": "multiselect"
}, {
	"columnName": "_4151",
	"columnDescription": "Two Year Age Range",
	"value": "76",
	"valueDescription": "Age 76 - 77",
	"selector": "",
	"menuType": "multiselect"
}, {
	"columnName": "_4151",
	"columnDescription": "Two Year Age Range",
	"value": "78",
	"valueDescription": "Age 78 - 79",
	"selector": "",
	"menuType": "multiselect"
}, {
	"columnName": "_4151",
	"columnDescription": "Two Year Age Range",
	"value": "80",
	"valueDescription": "Age 80 - 81",
	"selector": "",
	"menuType": "multiselect"
}, {
	"columnName": "_4151",
	"columnDescription": "Two Year Age Range",
	"value": "82",
	"valueDescription": "Age 82 - 83",
	"selector": "",
	"menuType": "multiselect"
}, {
	"columnName": "_4151",
	"columnDescription": "Two Year Age Range",
	"value": "84",
	"valueDescription": "Age 84 - 85",
	"selector": "",
	"menuType": "multiselect"
}, {
	"columnName": "_4151",
	"columnDescription": "Two Year Age Range",
	"value": "86",
	"valueDescription": "Age 86 - 87",
	"selector": "",
	"menuType": "multiselect"
}, {
	"columnName": "_4151",
	"columnDescription": "Two Year Age Range",
	"value": "88",
	"valueDescription": "Age 88 - 89",
	"selector": "",
	"menuType": "multiselect"
}, {
	"columnName": "_4151",
	"columnDescription": "Two Year Age Range",
	"value": "90",
	"valueDescription": "Age 90 - 91",
	"selector": "",
	"menuType": "multiselect"
}, {
	"columnName": "_4151",
	"columnDescription": "Two Year Age Range",
	"value": "92",
	"valueDescription": "Age 92 - 93",
	"selector": "",
	"menuType": "multiselect"
}, {
	"columnName": "_4151",
	"columnDescription": "Two Year Age Range",
	"value": "94",
	"valueDescription": "Age 94 - 95",
	"selector": "",
	"menuType": "multiselect"
}, {
	"columnName": "GENDER_CODE_3017",
	"columnDescription": "Gender",
	"value": "F",
	"valueDescription": "Female",
	"selector": "",
	"menuType": "multiselect"
}, {
	"columnName": "GENDER_CODE_3017",
	"columnDescription": "Gender",
	"value": "M",
	"valueDescription": "Male",
	"selector": "",
	"menuType": "multiselect"
}, {
	"columnName": "GENDER_CODE_3017",
	"columnDescription": "Gender",
	"value": "U",
	"valueDescription": "Unknown",
	"selector": "",
	"menuType": "multiselect"
}, {
	"columnName": "_4158",
	"columnDescription": "Length of Residence",
	"value": "",
	"valueDescription": "unknown",
	"selector": "",
	"menuType": "multiselect"
}, {
	"columnName": "_4158",
	"columnDescription": "Length of Residence",
	"value": "0",
	"valueDescription": "Less than 1 year",
	"selector": "",
	"menuType": "multiselect"
}, {
	"columnName": "_4158",
	"columnDescription": "Length of Residence",
	"value": "1",
	"valueDescription": "1 year",
	"selector": "",
	"menuType": "multiselect"
}, {
	"columnName": "_4158",
	"columnDescription": "Length of Residence",
	"value": "2",
	"valueDescription": "2 Years",
	"selector": "",
	"menuType": "multiselect"
}, {
	"columnName": "_4158",
	"columnDescription": "Length of Residence",
	"value": "3",
	"valueDescription": "3 Years",
	"selector": "",
	"menuType": "multiselect"
}, {
	"columnName": "_4158",
	"columnDescription": "Length of Residence",
	"value": "4",
	"valueDescription": "4 Years",
	"selector": "",
	"menuType": "multiselect"
}, {
	"columnName": "_4158",
	"columnDescription": "Length of Residence",
	"value": "5",
	"valueDescription": "5 Years",
	"selector": "",
	"menuType": "multiselect"
}, {
	"columnName": "_4158",
	"columnDescription": "Length of Residence",
	"value": "6",
	"valueDescription": "6 Years",
	"selector": "",
	"menuType": "multiselect"
}, {
	"columnName": "_4158",
	"columnDescription": "Length of Residence",
	"value": "7",
	"valueDescription": "7 Years",
	"selector": "",
	"menuType": "multiselect"
}, {
	"columnName": "_4158",
	"columnDescription": "Length of Residence",
	"value": "8",
	"valueDescription": "8 Years",
	"selector": "",
	"menuType": "multiselect"
}, {
	"columnName": "_4158",
	"columnDescription": "Length of Residence",
	"value": "9",
	"valueDescription": "9 Years",
	"selector": "",
	"menuType": "multiselect"
}, {
	"columnName": "_4158",
	"columnDescription": "Length of Residence",
	"value": "10",
	"valueDescription": "10 Years",
	"selector": "",
	"menuType": "multiselect"
}, {
	"columnName": "_4158",
	"columnDescription": "Length of Residence",
	"value": "11",
	"valueDescription": "11 Years",
	"selector": "",
	"menuType": "multiselect"
}, {
	"columnName": "_4158",
	"columnDescription": "Length of Residence",
	"value": "12",
	"valueDescription": "12 Years",
	"selector": "",
	"menuType": "multiselect"
}, {
	"columnName": "_4158",
	"columnDescription": "Length of Residence",
	"value": "13",
	"valueDescription": "13 Years",
	"selector": "",
	"menuType": "multiselect"
}, {
	"columnName": "_4158",
	"columnDescription": "Length of Residence",
	"value": "14",
	"valueDescription": "14 Years",
	"selector": "",
	"menuType": "multiselect"
}, {
	"columnName": "_4158",
	"columnDescription": "Length of Residence",
	"value": "15",
	"valueDescription": "Greater than 14 Years",
	"selector": "",
	"menuType": "multiselect"
}, {
	"columnName": "_4153",
	"columnDescription": "Presence of Children",
	"value": "N",
	"valueDescription": "No Children Present",
	"selector": "",
	"menuType": "multiselect"
}, {
	"columnName": "_4153",
	"columnDescription": "Presence of Children",
	"value": "Y",
	"valueDescription": "Child(ren) Present",
	"selector": "",
	"menuType": "multiselect"
}, {
	"columnName": "_4157",
	"columnDescription": "Home Owner or Renter",
	"value": "",
	"valueDescription": "unknown",
	"selector": "",
	"menuType": "multiselect"
}, {
	"columnName": "_4157",
	"columnDescription": "Home Owner or Renter",
	"value": "O",
	"valueDescription": "Home Owner",
	"selector": "in",
	"menuType": "multiselect"
}, {
	"columnName": "_4157",
	"columnDescription": "Home Owner or Renter",
	"value": "R",
	"valueDescription": "Renter",
	"selector": "",
	"menuType": "multiselect"
}, {
	"columnName": "_8555",
	"columnDescription": "Home Owner Type Detail RP",
	"value": "C",
	"valueDescription": "Company Owner",
	"selector": "",
	"menuType": "multiselect"
}, {
	"columnName": "_8555",
	"columnDescription": "Home Owner Type Detail RP",
	"value": "E",
	"valueDescription": "Inferred Owner Occupied",
	"selector": "",
	"menuType": "multiselect"
}, {
	"columnName": "_8555",
	"columnDescription": "Home Owner Type Detail RP",
	"value": "H",
	"valueDescription": "Residential Owner - Homestead Flag",
	"selector": "",
	"menuType": "multiselect"
}, {
	"columnName": "_8555",
	"columnDescription": "Home Owner Type Detail RP",
	"value": "I",
	"valueDescription": "Investor / Individual Owner",
	"selector": "",
	"menuType": "multiselect"
}, {
	"columnName": "_8555",
	"columnDescription": "Home Owner Type Detail RP",
	"value": "O",
	"valueDescription": "Residential Owner - Mail / Site Address"
}, {
	"columnName": "_4156",
	"columnDescription": "Marital Status",
	"value": "",
	"valueDescription": "unknown",
	"selector": "",
	"menuType": "multiselect"
}, {
	"columnName": "_4156",
	"columnDescription": "Marital Status",
	"value": "A",
	"valueDescription": "Inferred Married",
	"selector": "",
	"menuType": "multiselect"
}, {
	"columnName": "_4156",
	"columnDescription": "Marital Status",
	"value": "B",
	"valueDescription": "Inferred Single",
	"selector": "",
	"menuType": "multiselect"
}, {
	"columnName": "_4156",
	"columnDescription": "Marital Status",
	"value": "M",
	"valueDescription": "Married",
	"selector": "",
	"menuType": "multiselect"
}, {
	"columnName": "_4156",
	"columnDescription": "Marital Status",
	"value": "S",
	"valueDescription": "Single",
	"selector": "",
	"menuType": "multiselect"
}, {
	"columnName": "_9514",
	"columnDescription": "Education - Individual Level",
	"value": "",
	"valueDescription": "unknown",
	"selector": "",
	"menuType": "multiselect"
}, {
	"columnName": "_9514",
	"columnDescription": "Education - Individual Level",
	"value": "1",
	"valueDescription": "Completed High School",
	"selector": "",
	"menuType": "multiselect"
}, {
	"columnName": "_9514",
	"columnDescription": "Education - Individual Level",
	"value": "2",
	"valueDescription": "Completed College",
	"selector": "",
	"menuType": "multiselect"
}, {
	"columnName": "_9514",
	"columnDescription": "Education - Individual Level",
	"value": "4",
	"valueDescription": "Attended Vocational or Technical",
	"selector": "",
	"menuType": "multiselect"
}, {
	"columnName": "_8641",
	"columnDescription": "Income Estimated Household",
	"value": "1",
	"valueDescription": "Less than $15,000",
	"selector": "",
	"menuType": "multiselect"
}, {
	"columnName": "_8641",
	"columnDescription": "Income Estimated Household",
	"value": "2",
	"valueDescription": "$15,000 - $19,999",
	"selector": "",
	"menuType": "multiselect"
}, {
	"columnName": "_8641",
	"columnDescription": "Income Estimated Household",
	"value": "3",
	"valueDescription": "$20,000 - $29,999",
	"selector": "",
	"menuType": "multiselect"
}, {
	"columnName": "_8641",
	"columnDescription": "Income Estimated Household",
	"value": "4",
	"valueDescription": "$30,000 - $39,999",
	"selector": "",
	"menuType": "multiselect"
}, {
	"columnName": "_8641",
	"columnDescription": "Income Estimated Household",
	"value": "5",
	"valueDescription": "$40,000 - $49,999",
	"selector": "",
	"menuType": "multiselect"
}, {
	"columnName": "_8641",
	"columnDescription": "Income Estimated Household",
	"value": "6",
	"valueDescription": "$50,000 - $74,999",
	"selector": "",
	"menuType": "multiselect"
}, {
	"columnName": "_8641",
	"columnDescription": "Income Estimated Household",
	"value": "7",
	"valueDescription": "$75,000 - $99,999",
	"selector": "",
	"menuType": "multiselect"
}, {
	"columnName": "_8641",
	"columnDescription": "Income Estimated Household",
	"value": "8",
	"valueDescription": "$100,000 - $124,999",
	"selector": "",
	"menuType": "multiselect"
}, {
	"columnName": "_8641",
	"columnDescription": "Income Estimated Household",
	"value": "9",
	"valueDescription": "Greater than $124,999",
	"selector": "",
	"menuType": "multiselect"
}, {
	"columnName": "_8642",
	"columnDescription": "Home Market Value - Estimated",
	"value": "A",
	"valueDescription": "$1,000 - $24,999",
	"selector": "",
	"menuType": "multiselect"
}, {
	"columnName": "_8642",
	"columnDescription": "Home Market Value - Estimated",
	"value": "B",
	"valueDescription": "$25,000 - $49,999",
	"selector": "",
	"menuType": "multiselect"
}, {
	"columnName": "_8642",
	"columnDescription": "Home Market Value - Estimated",
	"value": "C",
	"valueDescription": "$50,000 - $74,999",
	"selector": "",
	"menuType": "multiselect"
}, {
	"columnName": "_8642",
	"columnDescription": "Home Market Value - Estimated",
	"value": "D",
	"valueDescription": "$75,000 - $99,999",
	"selector": "",
	"menuType": "multiselect"
}, {
	"columnName": "_8642",
	"columnDescription": "Home Market Value - Estimated",
	"value": "E",
	"valueDescription": "$100,000 - $124,999",
	"selector": "",
	"menuType": "multiselect"
}, {
	"columnName": "_8642",
	"columnDescription": "Home Market Value - Estimated",
	"value": "F",
	"valueDescription": "$125,000 - $149,999",
	"selector": "",
	"menuType": "multiselect"
}, {
	"columnName": "_8642",
	"columnDescription": "Home Market Value - Estimated",
	"value": "G",
	"valueDescription": "$150,000 - $174,999",
	"selector": "",
	"menuType": "multiselect"
}, {
	"columnName": "_8642",
	"columnDescription": "Home Market Value - Estimated",
	"value": "H",
	"valueDescription": "$175,000 - $199,999",
	"selector": "",
	"menuType": "multiselect"
}, {
	"columnName": "_8642",
	"columnDescription": "Home Market Value - Estimated",
	"value": "I",
	"valueDescription": "$200,000 - $224,999",
	"selector": "",
	"menuType": "multiselect"
}, {
	"columnName": "_8642",
	"columnDescription": "Home Market Value - Estimated",
	"value": "J",
	"valueDescription": "$225,000 - $249,999",
	"selector": "",
	"menuType": "multiselect"
}, {
	"columnName": "_8642",
	"columnDescription": "Home Market Value - Estimated",
	"value": "K",
	"valueDescription": "$250,000 - $274,999",
	"selector": "",
	"menuType": "multiselect"
}, {
	"columnName": "_8642",
	"columnDescription": "Home Market Value - Estimated",
	"value": "L",
	"valueDescription": "$275,000 - $299,999",
	"selector": "",
	"menuType": "multiselect"
}, {
	"columnName": "_8642",
	"columnDescription": "Home Market Value - Estimated",
	"value": "M",
	"valueDescription": "$300,000 - $349,999",
	"selector": "",
	"menuType": "multiselect"
}, {
	"columnName": "_8642",
	"columnDescription": "Home Market Value - Estimated",
	"value": "N",
	"valueDescription": "$350,000 - $399,999",
	"selector": "",
	"menuType": "multiselect"
}, {
	"columnName": "_8642",
	"columnDescription": "Home Market Value - Estimated",
	"value": "O",
	"valueDescription": "$400,000 - $449,999",
	"selector": "",
	"menuType": "multiselect"
}, {
	"columnName": "_8642",
	"columnDescription": "Home Market Value - Estimated",
	"value": "P",
	"valueDescription": "$450,000 - $499,999",
	"selector": "",
	"menuType": "multiselect"
}, {
	"columnName": "_8642",
	"columnDescription": "Home Market Value - Estimated",
	"value": "Q",
	"valueDescription": "$500,000 - $749,999",
	"selector": "",
	"menuType": "multiselect"
}, {
	"columnName": "_8642",
	"columnDescription": "Home Market Value - Estimated",
	"value": "R",
	"valueDescription": "$750,000 - $999,999",
	"selector": "",
	"menuType": "multiselect"
}, {
	"columnName": "_8642",
	"columnDescription": "Home Market Value - Estimated",
	"value": "S",
	"valueDescription": "$1,000,000 Plus",
	"selector": "",
	"menuType": "multiselect"
}, {
	"columnName": "_3409",
	"columnDescription": "Income Range Broad SC",
	"value": "A",
	"valueDescription": "Less than $30,000",
	"selector": "",
	"menuType": "multiselect"
}, {
	"columnName": "_3409",
	"columnDescription": "Income Range Broad SC",
	"value": "B",
	"valueDescription": "$30,000 - $39,999",
	"selector": "",
	"menuType": "multiselect"
}, {
	"columnName": "_3409",
	"columnDescription": "Income Range Broad SC",
	"value": "C",
	"valueDescription": "$40,000 - $49,999",
	"selector": "",
	"menuType": "multiselect"
}, {
	"columnName": "_3409",
	"columnDescription": "Income Range Broad SC",
	"value": "D",
	"valueDescription": "$50,000 - $59,999",
	"selector": "",
	"menuType": "multiselect"
}, {
	"columnName": "_3409",
	"columnDescription": "Income Range Broad SC",
	"value": "E",
	"valueDescription": "$60,000 - $74,999",
	"selector": "",
	"menuType": "multiselect"
}, {
	"columnName": "_3409",
	"columnDescription": "Income Range Broad SC",
	"value": "F",
	"valueDescription": "$75,000 - $99,999",
	"selector": "",
	"menuType": "multiselect"
}, {
	"columnName": "_3409",
	"columnDescription": "Income Range Broad SC",
	"value": "G",
	"valueDescription": "$100,000 - $124,999",
	"selector": "",
	"menuType": "multiselect"
}, {
	"columnName": "_3409",
	"columnDescription": "Income Range Broad SC",
	"value": "H",
	"valueDescription": "$125,000 - $149,999",
	"selector": "",
	"menuType": "multiselect"
}, {
	"columnName": "_3409",
	"columnDescription": "Income Range Broad SC",
	"value": "I",
	"valueDescription": "$150,000 - $199,999",
	"selector": "",
	"menuType": "multiselect"
}, {
	"columnName": "_3409",
	"columnDescription": "Income Range Broad SC",
	"value": "J",
	"valueDescription": "$200,000 - $249,999",
	"selector": "",
	"menuType": "multiselect"
}, {
	"columnName": "_3409",
	"columnDescription": "Income Range Broad SC",
	"value": "K",
	"valueDescription": "$250,000 - $299,999",
	"selector": "",
	"menuType": "multiselect"
}, {
	"columnName": "_3409",
	"columnDescription": "Income Range Broad SC",
	"value": "L",
	"valueDescription": "$300,000 - $499,999",
	"selector": "",
	"menuType": "multiselect"
}, {
	"columnName": "_3409",
	"columnDescription": "Income Range Broad SC",
	"value": "M",
	"valueDescription": "Greater than $499,999"
}]