[{
		"columnName": "_8600_2",
		"columnDescription": "Adult Age Ranges Present in Household",
		"value": "1",
		"valueDescription": "Females 18 - 24",
		"selector": "",
		"menuType": "multiselect"
	}, {
		"columnName": "_8600_5",
		"columnDescription": "Adult Age Ranges Present in Household",
		"value": "1",
		"valueDescription": "Females 25 - 34",
		"selector": "",
		"menuType": "multiselect"
	}, {
		"columnName": "_8600_8",
		"columnDescription": "Adult Age Ranges Present in Household",
		"value": "1",
		"valueDescription": "Females 35 - 44",
		"selector": "",
		"menuType": "multiselect"
	}, {
		"columnName": "_8600_11",
		"columnDescription": "Adult Age Ranges Present in Household",
		"value": "1",
		"valueDescription": "Females 45 - 54",
		"selector": "",
		"menuType": "multiselect"
	}, {
		"columnName": "_8600_14",
		"columnDescription": "Adult Age Ranges Present in Household",
		"value": "1",
		"valueDescription": "Females 55 - 64",
		"selector": "",
		"menuType": "multiselect"
	}, {
		"columnName": "_8600_17",
		"columnDescription": "Adult Age Ranges Present in Household",
		"value": "1",
		"valueDescription": "Females 65 - 74",
		"selector": "",
		"menuType": "multiselect"
	}, {
		"columnName": "_8600_20",
		"columnDescription": "Adult Age Ranges Present in Household",
		"value": "1",
		"valueDescription": "Females 75 and up",
		"selector": "",
		"menuType": "multiselect"
	}, {
		"columnName": "_8600_1",
		"columnDescription": "Adult Age Ranges Present in Household",
		"value": "1",
		"valueDescription": "Males 18 - 24",
		"selector": "",
		"menuType": "multiselect"
	}, {
		"columnName": "_8600_4",
		"columnDescription": "Adult Age Ranges Present in Household",
		"value": "1",
		"valueDescription": "Males 25 - 34",
		"selector": "",
		"menuType": "multiselect"
	}, {
		"columnName": "_8600_7",
		"columnDescription": "Adult Age Ranges Present in Household",
		"value": "1",
		"valueDescription": "Males 35 - 44",
		"selector": "",
		"menuType": "multiselect"
	}, {
		"columnName": "_8600_10",
		"columnDescription": "Adult Age Ranges Present in Household",
		"value": "1",
		"valueDescription": "Males 45 - 54",
		"selector": "",
		"menuType": "multiselect"
	}, {
		"columnName": "_8600_13",
		"columnDescription": "Adult Age Ranges Present in Household",
		"value": "1",
		"valueDescription": "Males 55 - 64",
		"selector": "",
		"menuType": "multiselect"
	}, {
		"columnName": "_8600_16",
		"columnDescription": "Adult Age Ranges Present in Household",
		"value": "1",
		"valueDescription": "Males 65 - 74",
		"selector": "",
		"menuType": "multiselect"
	}, {
		"columnName": "_8600_19",
		"columnDescription": "Adult Age Ranges Present in Household",
		"value": "1",
		"valueDescription": "Males 75 and up",
		"selector": "",
		"menuType": "multiselect"
	}, {
		"columnName": "_8600_3",
		"columnDescription": "Adult Age Ranges Present in Household",
		"value": "1",
		"valueDescription": "Unknown Gender 18 - 24",
		"selector": "",
		"menuType": "multiselect"
	}, {
		"columnName": "_8600_6",
		"columnDescription": "Adult Age Ranges Present in Household",
		"value": "1",
		"valueDescription": "Unknown Gender 25 - 34",
		"selector": "",
		"menuType": "multiselect"
	}, {
		"columnName": "_8600_9",
		"columnDescription": "Adult Age Ranges Present in Household",
		"value": "1",
		"valueDescription": "Unknown Gender 35 - 44",
		"selector": "",
		"menuType": "multiselect"
	}, {
		"columnName": "_8600_12",
		"columnDescription": "Adult Age Ranges Present in Household",
		"value": "1",
		"valueDescription": "Unknown Gender 45 - 54",
		"selector": "",
		"menuType": "multiselect"
	}, {
		"columnName": "_8600_15",
		"columnDescription": "Adult Age Ranges Present in Household",
		"value": "1",
		"valueDescription": "Unknown Gender 55 - 64",
		"selector": "",
		"menuType": "multiselect"
	}, {
		"columnName": "_8600_18",
		"columnDescription": "Adult Age Ranges Present in Household",
		"value": "1",
		"valueDescription": "Unknown Gender 65 - 74",
		"selector": "",
		"menuType": "multiselect"
	}, {
		"columnName": "_8600_21",
		"columnDescription": "Adult Age Ranges Present in Household",
		"value": "1",
		"valueDescription": "Unknown Gender 75 and up",
		"selector": "",
		"menuType": "multiselect"
	}, {
		"columnName": "_4155_2",
		"columnDescription": "Childrens Age Ranges Present in Hhld - Reseller",
		"value": "1",
		"valueDescription": "Age 00 - 02 Female",
		"selector": "",
		"menuType": "multiselect"
	}, {
		"columnName": "_4155_5",
		"columnDescription": "Childrens Age Ranges Present in Hhld - Reseller",
		"value": "1",
		"valueDescription": "Age 03 - 05 Female",
		"selector": "",
		"menuType": "multiselect"
	}, {
		"columnName": "_4155_8",
		"columnDescription": "Childrens Age Ranges Present in Hhld - Reseller",
		"value": "1",
		"valueDescription": "Age 06 - 10 Female",
		"selector": "",
		"menuType": "multiselect"
	}, {
		"columnName": "_4155_11",
		"columnDescription": "Childrens Age Ranges Present in Hhld - Reseller",
		"value": "1",
		"valueDescription": "Age 11 - 15 Female",
		"selector": "",
		"menuType": "multiselect"
	}, {
		"columnName": "_4155_14",
		"columnDescription": "Childrens Age Ranges Present in Hhld - Reseller",
		"value": "1",
		"valueDescription": "Age 16 - 17 Female",
		"selector": "",
		"menuType": "multiselect"
	},

	{
		"columnName": "_4155_1",
		"columnDescription": "Childrens Age Ranges Present in Hhld - Reseller",
		"value": "1",
		"valueDescription": "Age 00 - 02 Male",
		"selector": "",
		"menuType": "multiselect"
	}, {
		"columnName": "_4155_4",
		"columnDescription": "Childrens Age Ranges Present in Hhld - Reseller",
		"value": "1",
		"valueDescription": "Age 03 - 05 Male",
		"selector": "",
		"menuType": "multiselect"
	}, {
		"columnName": "_4155_7",
		"columnDescription": "Childrens Age Ranges Present in Hhld - Reseller",
		"value": "1",
		"valueDescription": "Age 06 - 10 Male",
		"selector": "",
		"menuType": "multiselect"
	}, {
		"columnName": "_4155_10",
		"columnDescription": "Childrens Age Ranges Present in Hhld - Reseller",
		"value": "1",
		"valueDescription": "Age 11 - 15 Male",
		"selector": "",
		"menuType": "multiselect"
	}, {
		"columnName": "_4155_13",
		"columnDescription": "Childrens Age Ranges Present in Hhld - Reseller",
		"value": "1",
		"valueDescription": "Age 16 - 17 Male",
		"selector": "",
		"menuType": "multiselect"
	},

	{
		"columnName": "_4155_3",
		"columnDescription": "Childrens Age Ranges Present in Hhld - Reseller",
		"value": "1",
		"valueDescription": "Age 00 - 02 Unknown Gender",
		"selector": "",
		"menuType": "multiselect"
	}, {
		"columnName": "_4155_6",
		"columnDescription": "Childrens Age Ranges Present in Hhld - Reseller",
		"value": "1",
		"valueDescription": "Age 03 - 05 Unknown Gender",
		"selector": "",
		"menuType": "multiselect"
	}, {
		"columnName": "_4155_9",
		"columnDescription": "Childrens Age Ranges Present in Hhld - Reseller",
		"value": "1",
		"valueDescription": "Age 06 - 10 Unknown Gender",
		"selector": "",
		"menuType": "multiselect"
	}, {
		"columnName": "_4155_12",
		"columnDescription": "Childrens Age Ranges Present in Hhld - Reseller",
		"value": "1",
		"valueDescription": "Age 11 - 15 Unknown Gender",
		"selector": "",
		"menuType": "multiselect"
	}, {
		"columnName": "_4155_15",
		"columnDescription": "Childrens Age Ranges Present in Hhld - Reseller",
		"value": "1",
		"valueDescription": "Age 16 - 17 Unknown Gender",
		"selector": "",
		"menuType": "multiselect"
	}, {
		"columnName": "_4153",
		"columnDescription": "Presence Of Children - Reseller",
		"value": "N",
		"valueDescription": "No Children Present",
		"selector": "",
		"menuType": "multiselect"
	}, {
		"columnName": "_4153",
		"columnDescription": "Presence Of Children - Reseller",
		"value": "Y",
		"valueDescription": "Child(ren) Present",
		"selector": "",
		"menuType": "multiselect"
	}, {
		"columnName": "_6425",
		"columnDescription": "Health And Beauty",
		"value": "1",
		"valueDescription": "Health And Beauty",
		"selector": "",
		"menuType": "checkbox"
	}, {
		"columnName": "_7849",
		"columnDescription": "BeautyCosmetics",
		"value": "1",
		"valueDescription": "BeautyCosmetics",
		"selector": "",
		"menuType": "checkbox"
	}, {
		"columnName": "_8641",
		"columnDescription": "Income - Estimated Household",
		"value": "1",
		"valueDescription": "Less than $15,000",
		"selector": "",
		"menuType": "multiselect"
	}, {
		"columnName": "_8641",
		"columnDescription": "Income - Estimated Household",
		"value": "2",
		"valueDescription": "$15,000 - $19,999",
		"selector": "",
		"menuType": "multiselect"
	}, {
		"columnName": "_8641",
		"columnDescription": "Income - Estimated Household",
		"value": "3",
		"valueDescription": "$20,000 - $29,999",
		"selector": "",
		"menuType": "multiselect"
	}, {
		"columnName": "_8641",
		"columnDescription": "Income - Estimated Household",
		"value": "4",
		"valueDescription": "$30,000 - $39,999",
		"selector": "",
		"menuType": "multiselect"
	}, {
		"columnName": "_8641",
		"columnDescription": "Income - Estimated Household",
		"value": "5",
		"valueDescription": "$40,000 - $49,999",
		"selector": "",
		"menuType": "multiselect"
	}, {
		"columnName": "_8641",
		"columnDescription": "Income - Estimated Household",
		"value": "6",
		"valueDescription": "$50,000 - $74,999",
		"selector": "",
		"menuType": "multiselect"
	}, {
		"columnName": "_8641",
		"columnDescription": "Income - Estimated Household",
		"value": "7",
		"valueDescription": "$75,000 - $99,999",
		"selector": "",
		"menuType": "multiselect"
	}, {
		"columnName": "_8641",
		"columnDescription": "Income - Estimated Household",
		"value": "8",
		"valueDescription": "$100,000 - $124,999",
		"selector": "",
		"menuType": "multiselect"
	}, {
		"columnName": "_8641",
		"columnDescription": "Income - Estimated Household",
		"value": "9",
		"valueDescription": "Greater than $124,999",
		"selector": "",
		"menuType": "multiselect"
	}, {
		"columnName": "_8642",
		"columnDescription": "Home Market Value - Estimated",
		"value": "A",
		"valueDescription": "$1,000 - $24,999",
		"selector": "",
		"menuType": "multiselect"
	}, {
		"columnName": "_8642",
		"columnDescription": "Home Market Value - Estimated",
		"value": "B",
		"valueDescription": "$25,000 - $49,999",
		"selector": "",
		"menuType": "multiselect"
	}, {
		"columnName": "_8642",
		"columnDescription": "Home Market Value - Estimated",
		"value": "C",
		"valueDescription": "$50,000 - $74,999",
		"selector": "",
		"menuType": "multiselect"
	}, {
		"columnName": "_8642",
		"columnDescription": "Home Market Value - Estimated",
		"value": "D",
		"valueDescription": "$75,000 - $99,999",
		"selector": "",
		"menuType": "multiselect"
	}, {
		"columnName": "_8642",
		"columnDescription": "Home Market Value - Estimated",
		"value": "E",
		"valueDescription": "$100,000 - $124,999",
		"selector": "",
		"menuType": "multiselect"
	}, {
		"columnName": "_8642",
		"columnDescription": "Home Market Value - Estimated",
		"value": "F",
		"valueDescription": "$125,000 - $149,999",
		"selector": "",
		"menuType": "multiselect"
	}, {
		"columnName": "_8642",
		"columnDescription": "Home Market Value - Estimated",
		"value": "G",
		"valueDescription": "$150,000 - $174,999",
		"selector": "",
		"menuType": "multiselect"
	}, {
		"columnName": "_8642",
		"columnDescription": "Home Market Value - Estimated",
		"value": "H",
		"valueDescription": "$175,000 - $199,999",
		"selector": "",
		"menuType": "multiselect"
	}, {
		"columnName": "_8642",
		"columnDescription": "Home Market Value - Estimated",
		"value": "I",
		"valueDescription": "$200,000 - $224,999",
		"selector": "",
		"menuType": "multiselect"
	}, {
		"columnName": "_8642",
		"columnDescription": "Home Market Value - Estimated",
		"value": "J",
		"valueDescription": "$225,000 - $249,999",
		"selector": "",
		"menuType": "multiselect"
	}, {
		"columnName": "_8642",
		"columnDescription": "Home Market Value - Estimated",
		"value": "K",
		"valueDescription": "$250,000 - $274,999",
		"selector": "",
		"menuType": "multiselect"
	}, {
		"columnName": "_8642",
		"columnDescription": "Home Market Value - Estimated",
		"value": "L",
		"valueDescription": "$275,000 - $299,999",
		"selector": "",
		"menuType": "multiselect"
	}, {
		"columnName": "_8642",
		"columnDescription": "Home Market Value - Estimated",
		"value": "M",
		"valueDescription": "$300,000 - $349,999",
		"selector": "",
		"menuType": "multiselect"
	}, {
		"columnName": "_8642",
		"columnDescription": "Home Market Value - Estimated",
		"value": "N",
		"valueDescription": "$350,000 - $399,999",
		"selector": "",
		"menuType": "multiselect"
	}, {
		"columnName": "_8642",
		"columnDescription": "Home Market Value - Estimated",
		"value": "O",
		"valueDescription": "$400,000 - $449,999",
		"selector": "",
		"menuType": "multiselect"
	}, {
		"columnName": "_8642",
		"columnDescription": "Home Market Value - Estimated",
		"value": "P",
		"valueDescription": "$450,000 - $499,999",
		"selector": "",
		"menuType": "multiselect"
	}, {
		"columnName": "_8642",
		"columnDescription": "Home Market Value - Estimated",
		"value": "Q",
		"valueDescription": "$500,000 - $749,999",
		"selector": "",
		"menuType": "multiselect"
	}, {
		"columnName": "_8642",
		"columnDescription": "Home Market Value - Estimated",
		"value": "R",
		"valueDescription": "$750,000 - $999,999",
		"selector": "",
		"menuType": "multiselect"
	}, {
		"columnName": "_8642",
		"columnDescription": "Home Market Value - Estimated",
		"value": "S",
		"valueDescription": "$1,000,000 Plus",
		"selector": "",
		"menuType": "multiselect"
	}, {
		"columnName": "_8581",
		"columnDescription": "Home Property Type Detail Rp",
		"value": "A",
		"valueDescription": "Single Family Dwelling Unit",
		"selector": "",
		"menuType": "multiselect"
	}, {
		"columnName": "_8581",
		"columnDescription": "Home Property Type Detail Rp",
		"value": "B",
		"valueDescription": "Condo",
		"selector": "",
		"menuType": "multiselect"
	}, {
		"columnName": "_8581",
		"columnDescription": "Home Property Type Detail Rp",
		"value": "C",
		"valueDescription": "Cooperative",
		"selector": "",
		"menuType": "multiselect"
	}, {
		"columnName": "_8581",
		"columnDescription": "Home Property Type Detail Rp",
		"value": "D",
		"valueDescription": "2-4 Unit (Duplex, Triplex, Quad)",
		"selector": "",
		"menuType": "multiselect"
	}, {
		"columnName": "_8581",
		"columnDescription": "Home Property Type Detail Rp",
		"value": "E",
		"valueDescription": "Miscellaneous Residence (Combo Store/Flat)",
		"selector": "",
		"menuType": "multiselect"
	}, {
		"columnName": "_8581",
		"columnDescription": "Home Property Type Detail Rp",
		"value": "G",
		"valueDescription": "Apartment (5+ Units)",
		"selector": "",
		"menuType": "multiselect"
	}, {
		"columnName": "_8581",
		"columnDescription": "Home Property Type Detail Rp",
		"value": "M",
		"valueDescription": "Mobile Home",
		"selector": "",
		"menuType": "multiselect"
	}, {
		"columnName": "_8581",
		"columnDescription": "Home Property Type Detail Rp",
		"value": "T",
		"valueDescription": "Timeshare",
		"selector": "",
		"menuType": "multiselect"
	}, {
		"columnName": "_8927",
		"columnDescription": "Roll-Up Code - E-Tech",
		"value": "B",
		"valueDescription": "Asian (Non-oriental)",
		"selector": "",
		"menuType": "multiselect"
	}, {
		"columnName": "_8927",
		"columnDescription": "Roll-Up Code - E-Tech",
		"value": "D",
		"valueDescription": "Southern European",
		"selector": "",
		"menuType": "multiselect"
	}, {
		"columnName": "_8927",
		"columnDescription": "Roll-Up Code - E-Tech",
		"value": "F",
		"valueDescription": "French",
		"selector": "",
		"menuType": "multiselect"
	}, {
		"columnName": "_8927",
		"columnDescription": "Roll-Up Code - E-Tech",
		"value": "G",
		"valueDescription": "German",
		"selector": "",
		"menuType": "multiselect"
	}, {
		"columnName": "_8927",
		"columnDescription": "Roll-Up Code - E-Tech",
		"value": "H",
		"valueDescription": "Hispanic",
		"selector": "",
		"menuType": "multiselect"
	}, {
		"columnName": "_8927",
		"columnDescription": "Roll-Up Code - E-Tech",
		"value": "I",
		"valueDescription": "Italian",
		"selector": "",
		"menuType": "multiselect"
	}, {
		"columnName": "_8927",
		"columnDescription": "Roll-Up Code - E-Tech",
		"value": "J",
		"valueDescription": "Jewish",
		"selector": "",
		"menuType": "multiselect"
	}, {
		"columnName": "_8927",
		"columnDescription": "Roll-Up Code - E-Tech",
		"value": "M",
		"valueDescription": "Miscellaneous",
		"selector": "",
		"menuType": "multiselect"
	}, {
		"columnName": "_8927",
		"columnDescription": "Roll-Up Code - E-Tech",
		"value": "N",
		"valueDescription": "Northern European",
		"selector": "",
		"menuType": "multiselect"
	}, {
		"columnName": "_8927",
		"columnDescription": "Roll-Up Code - E-Tech",
		"value": "O",
		"valueDescription": "Asian",
		"selector": "",
		"menuType": "multiselect"
	}, {
		"columnName": "_8927",
		"columnDescription": "Roll-Up Code - E-Tech",
		"value": "P",
		"valueDescription": "Polynesian",
		"selector": "",
		"menuType": "multiselect"
	}, {
		"columnName": "_8927",
		"columnDescription": "Roll-Up Code - E-Tech",
		"value": "R",
		"valueDescription": "Arab",
		"selector": "",
		"menuType": "multiselect"
	}, {
		"columnName": "_8927",
		"columnDescription": "Roll-Up Code - E-Tech",
		"value": "S",
		"valueDescription": "Scottish or Irish",
		"selector": "",
		"menuType": "multiselect"
	}, {
		"columnName": "_8927",
		"columnDescription": "Roll-Up Code - E-Tech",
		"value": "X",
		"valueDescription": "Not Possible to Code",
		"selector": "",
		"menuType": "multiselect"
	}, {
		"columnName": "_8927",
		"columnDescription": "Roll-Up Code - E-Tech",
		"value": "Z",
		"valueDescription": "African American",
		"selector": "",
		"menuType": "multiselect"
	}
]