{
    "managerEmail": "annie.wilson@caseys.com",
    "description": "March 2014 Opt-in Pizza Delivery Postcard",
    "image": "images/Crit_Pizza_front_thumb.png",
    "imageSub": null,
    "inHomeDate": "03/03/2014",
    "optInEndDate": "01/26/2014",
    "approveByEndDate": "02/06/2014",
    "storeList": [
        {
            "storeId": "1513",
            "city": "TAYLORVILLE",
            "state": "IL",
            "isChecked": 1,
            "targetedPretty": "0",
            "costPretty": "$0.00",
            "selectedPostcard": "Delivery Only"
        },
        {
            "storeId": "1878",
            "city": "CHARLESTON",
            "state": "IL",
            "isChecked": 1,
            "targetedPretty": "0",
            "costPretty": "$0.00",
            "selectedPostcard": "Carry-Out and/or Delivery"
        },
        {
            "storeId": "1917",
            "city": "VANDALIA",
            "state": "IL",
            "isChecked": 1,
            "targetedPretty": "0",
            "costPretty": "$0.00",
            "selectedPostcard": "Carry-Out and/or Delivery"
        },
        {
            "storeId": "1937",
            "city": "GREENVILLE",
            "state": "IL",
            "isChecked": 1,
            "targetedPretty": "0",
            "costPretty": "$0.00",
            "selectedPostcard": ""
        },
        {
            "storeId": "1722",
            "city": "MATTOON",
            "state": "IL",
            "isChecked": 0,
            "targetedPretty": "0",
            "costPretty": "$0.00",
            "selectedPostcard": ""
        },
        {
            "storeId": "2390",
            "city": "CLINTON",
            "state": "IN",
            "isChecked": 0,
            "targetedPretty": "0",
            "costPretty": "$0.00",
            "selectedPostcard": ""
        },
        {
            "storeId": "1903",
            "city": "SHELBYVILLE",
            "state": "IL",
            "isChecked": 0,
            "targetedPretty": "0",
            "costPretty": "$0.00",
            "selectedPostcard": ""
        },
        {
            "storeId": "1975",
            "city": "PANA",
            "state": "IL",
            "isChecked": 0,
            "targetedPretty": "0",
            "costPretty": "$0.00",
            "selectedPostcard": ""
        },
        {
            "storeId": "2280",
            "city": "MOORESVILLE",
            "state": "IN",
            "isChecked": 0,
            "targetedPretty": "0",
            "costPretty": "$0.00",
            "selectedPostcard": ""
        },
        {
            "storeId": "1924",
            "city": "PARIS",
            "state": "IL",
            "isChecked": 1,
            "targetedPretty": "0",
            "costPretty": "$0.00",
            "selectedPostcard": "Delivery Only"
        },
        {
            "storeId": "3007",
            "city": "GREENCASTLE",
            "state": "IN",
            "isChecked": 0,
            "targetedPretty": "0",
            "costPretty": "$0.00",
            "selectedPostcard": ""
        },
        {
            "storeId": "1825",
            "city": "BRAZIL",
            "state": "IN",
            "isChecked": 0,
            "targetedPretty": "0",
            "costPretty": "$0.00",
            "selectedPostcard": ""
        },
        {
            "storeId": "2941",
            "city": "EFFINGHAM",
            "state": "IL",
            "isChecked": 0,
            "targetedPretty": "0",
            "costPretty": "$0.00",
            "selectedPostcard": ""
        }
    ],
    "emailNotes": ""
}