[
    {
        "orderPk": 330,
        "storeId": "2",
        "availableQty": "4699",
        "targetedQty": "0",
        "radius": "5",
		"latitude": 40.70253797,
		"longitude": -89.62577487,
        "geos": [
            {
                "geo": "zip",
                "zipCode": 67410,
                "zipName": "ABILENE",
                "available": "700",
                "targeted": "0",
                "crrts": [
                    {
                        "crrtName": "B001",
                        "available": 100,
                        "isChecked": "0"
                    },
                    {
                        "crrtName": "B002",
                        "available": 100,
                        "isChecked": "0"
                    },
                    {
                        "crrtName": "B003",
                        "available": 500,
                        "ischecked": "0"
                    }
                ]
            },
            {
                "geo": "zip",
                "zipCode": 67411,
                "zipName": "ENTERPRISE",
                "available": "300",
                "targeted": "0",
                "crrts": [
                    {
                        "crrtName": "C004",
                        "available": 100,
                        "isChecked": "0"
                    },
                    {
                        "crrtName": "C005",
                        "available": 50,
                        "isChecked": "0"
                    },
                    {
                        "crrtName": "C006",
                        "available": 150,
                        "isChecked": "0"
                    }
                ]
            },
            {
                "geo": "zip",
                "zipCode": 67412,
                "zipName": "ABILENE2",
                "available": "70",
                "targeted": "0",
                "crrts": [
                    {
                        "crrtName": "D001",
                        "available": 10,
                        "isChecked": "0"
                    },
                    {
                        "crrtName": "D002",
                        "available": 10,
                        "isChecked": "0"
                    },
                    {
                        "crrtName": "D003",
                        "available": 50,
                        "isChecked": "0"
                    }
                ]
            },
            {
				"geo": "zip",
                "zipCode": 67413,
                "zipName": "ENTERPRISE2",
                "available": "110",
                "targeted": "0",
                "crrts": [
                    {
                        "crrtName": "C004",
                        "available": 10,
                        "isChecked": "0"
                    },
                    {
                        "crrtName": "C005",
                        "available": 50,
                        "isChecked": "0"
                    },
                    {
                        "crrtName": "C006",
                        "available": 50,
                        "isChecked": "0"
                    }
                ]
            }
        ]
    },
    {
        "storeId": "3",
        "availableQty": "3000",
        "targetedQty": "0",
        "radius": "3",
        "geos": [
            {
				"geo": "zip",
                "zipCode": 67412,
                "zipName": "ABILENE",
                "available": "60",
                "targeted": "0",
                "crrts": [
                    {
                        "crrtName": "D001",
                        "available": 10,
                        "isChecked": "0"
                    },
                    {
                        "crrtName": "D002",
                        "available": 20,
                        "isChecked": "0"
                    },
                    {
                        "crrtName": "D003",
                        "available": 30,
                        "isChecked": "0"
                    }
                ]
            },
            {
				"geo": "zip",
                "zipCode": 67413,
                "zipName": "ABILENE",
                "available": "100",
                "targeted": "0",
                "crrts": [
                    {
                        "crrtName": "E004",
                        "available": 30,
                        "isChecked": "0"
                    },
                    {
                        "crrtName": "E005",
                        "available": 40,
                        "isChecked": "0"
                    },
                    {
                        "crrtName": "E006",
                        "available": 30,
                        "isChecked": "0"
                    }
                ]
            }
        ]
    }
]