{
	"name": "Templates",
	"moduleId": "templates",
	"moduleConfig": [{
		"customer": "155370",
		"showModule": {
			"super": "1",
			"admin": "1",
			"power": "1",
			"user": "1",
			"basic": "1"
		}
	}, {
		"customer": "155711",
		"showModule": {
			"super": "1",
			"admin": "1",
			"power": "1",
			"user": "1",
			"basic": "1"
		}
	}, {
		"customer": "105",
		"showModule": {
			"super": "1",
			"admin": "1",
			"power": "1",
			"user": "1",
			"basic": "1"
		}
	}, {
		"customer": "284",
		"showModule": {
			"super": "1",
			"admin": "1",
			"power": "1",
			"user": "1",
			"basic": "1"
		}
	}, {
		"customer": "100382",
		"showModule": {
			"super": "1",
			"admin": "1",
			"power": "1",
			"user": "1",
			"basic": "1"
		}
	}, {
		"customer": "279",
		"showModule": {
			"super": "1",
			"admin": "1",
			"power": "1",
			"user": "1",
			"basic": "1"
		}
	}, {
		"customer": "6000420",
		"showModule": {
			"super": "1",
			"admin": "1",
			"power": "1",
			"user": "1",
			"basic": "1"
		}
	}, {
		"customer": "336",
		"showModule": {
			"super": "1",
			"admin": "1",
			"power": "1",
			"user": "1",
			"basic": "1"
		}
	}],
	"variableItems": [{
		"item": "expiryDate",
		"controlName":"Expiry Date",
		"controlId":"expiryDate",
		"controlType":"text",
		"isDefault":"false",
		"itemConfig": [{
			"customer": "155370",
			"label":"N/A",
			"showItem": {
				"super": "1",
				"admin": "0",
				"power": "0",
				"user": "0",
				"basic": "0"
			}
		}, {
			"customer": "155711",
			"label":"Expiry Date",
			"showItem": {
				"super": "1",
				"admin": "0",
				"power": "0",
				"user": "0",
				"basic": "0"
			}
		}, {
			"customer": "105",
			"label":"N/A",
			"showItem": {
				"super": "1",
				"admin": "0",
				"power": "0",
				"user": "0",
				"basic": "0"

			}
		}, {
			"customer": "284",
			"label":"N/A",
			"showItem": {
				"super": "1",
				"admin": "0",
				"power": "0",
				"user": "0",
				"basic": "0"

			}
		}, {
			"customer": "100382",
			"label":"N/A",
			"showItem": {
				"super": "1",
				"admin": "0",
				"power": "0",
				"user": "0",
				"basic": "0"

			}
		}, {
			"customer": "279",
			"label":"N/A",
			"showItem": {
				"super": "1",
				"admin": "0",
				"power": "0",
				"user": "0",
				"basic": "0"

			}
		}, {
			"customer": "6000420",
			"label":"N/A",
			"showItem": {
				"super": "1",
				"admin": "0",
				"power": "0",
				"user": "0",
				"basic": "0"

			}
		}, {
			"customer": "336",
			"label":"N/A",
			"showItem": {
				"super": "1",
				"admin": "0",
				"power": "0",
				"user": "0",
				"basic": "0"
			}
		}]
	}, {
		"item": "inHomeDate",
		"controlName":"In Home Date",
		"controlId":"inHomeDate",
		"controlType":"text",
		"isDefault":"false",
		"itemConfig": [{
			"customer": "155370",
			"label":"In Home Date",
			"showItem": {
				"super": "1",
				"admin": "1",
				"power": "0",
				"user": "0",
				"basic": "0"
			}
		}, {
			"customer": "155711",
			"label":"1st In Home Date",
			"showItem": {
				"super": "1",
				"admin": "0",
				"power": "0",
				"user": "0",
				"basic": "0"
			}
		}, {
			"customer": "105",
			"label":"In Home Date",
			"showItem": {
				"super": "1",
				"admin": "1",
				"power": "0",
				"user": "0",
				"basic": "0"
			}
		}, {
			"customer": "284",
			"label":"In Home Date",
			"showItem": {
				"super": "1",
				"admin": "0",
				"power": "0",
				"user": "0",
				"basic": "0"
			}
		}, {
			"customer": "100382",
			"label":"In Home Date",
			"showItem": {
				"super": "1",
				"admin": "1",
				"power": "0",
				"user": "0",
				"basic": "0"
			}
		}, {
			"customer": "279",
			"label":"In Home Date",
			"showItem": {
				"super": "1",
				"admin": "1",
				"power": "1",
				"user": "0",
				"basic": "0"
			}
		}, {
			"customer": "6000420",
			"label":"In Home Date",
			"showItem": {
				"super": "1",
				"admin": "0",
				"power": "1",
				"user": "0",
				"basic": "0"
			}
		}, {
			"customer": "336",
			"label":"In Home Date",
			"showItem": {
				"super": "1",
				"admin": "0",
				"power": "0",
				"user": "0",
				"basic": "0"
			}
		}]
	}, {
		"item": "inHomeDate2",
		"controlName":"In Home Date 2",
		"controlId":"inHomeDate2",
		"controlType":"text",
		"isDefault":"false",
		"itemConfig": [{
			"customer": "155370",
			"label":"N/A",
			"showItem": {
				"super": "1",
				"admin": "0",
				"power": "0",
				"user": "0",
				"basic": "0"

			}
		}, {
			"customer": "155711",
			"label":"N/A",
			"showItem": {
				"super": "1",
				"admin": "1",
				"power": "0",
				"user": "0",
				"basic": "0"

			}
		}, {
			"customer": "105",
			"label":"N/A",
			"showItem": {
				"super": "1",
				"admin": "0",
				"power": "0",
				"user": "0",
				"basic": "0"

			}
		}, {
			"customer": "284",
			"label":"N/A",
			"showItem": {
				"super": "1",
				"admin": "1",
				"power": "0",
				"user": "0",
				"basic": "0"

			}
		}, {
			"customer": "100382",
			"label":"N/A",
			"showItem": {
				"super": "1",
				"admin": "0",
				"power": "0",
				"user": "0",
				"basic": "0"

			}
		}, {
			"customer": "279",
			"label":"N/A",
			"showItem": {
				"super": "1",
				"admin": "0",
				"power": "0",
				"user": "0",
				"basic": "0"

			}
		}, {
			"customer": "6000420",
			"label":"N/A",
			"showItem": {
				"super": "1",
				"admin": "0",
				"power": "0",
				"user": "0",
				"basic": "0"

			}
		}, {
			"customer": "336",
			"label":"N/A",
			"showItem": {
				"super": "1",
				"admin": "0",
				"power": "0",
				"user": "0",
				"basic": "0"

			}
		}]
	}, {
		"item": "inHomeDate3",
		"controlName":"In Home Date 3",
		"controlId":"inHomeDate3",
		"controlType":"text",
		"isDefault":"false",
		"itemConfig": [{
			"customer": "155370",
			"label":"N/A",
			"showItem": {
				"super": "1",
				"admin": "0",
				"power": "0",
				"user": "0",
				"basic": "0"
			}
		}, {
			"customer": "155711",
			"label":"N/A",
			"showItem": {
				"super": "1",
				"admin": "0",
				"power": "0",
				"user": "0",
				"basic": "0"
			}
		}, {
			"customer": "105",
			"label":"N/A",
			"showItem": {
				"super": "1",
				"admin": "1",
				"power": "0",
				"user": "0",
				"basic": "0"
			}
		}, {
			"customer": "284",
			"label":"N/A",
			"showItem": {
				"super": "1",
				"admin": "1",
				"power": "1",
				"user": "0",
				"basic": "0"
			}
		}, {
			"customer": "100382",
			"label":"N/A",
			"showItem": {
				"super": "1",
				"admin": "0",
				"power": "0",
				"user": "0",
				"basic": "0"
			}
		}, {
			"customer": "279",
			"label":"N/A",
			"showItem": {
				"super": "1",
				"admin": "0",
				"power": "0",
				"user": "0",
				"basic": "0"
			}
		}, {
			"customer": "6000420",
			"label":"N/A",
			"showItem": {
				"super": "1",
				"admin": "0",
				"power": "0",
				"user": "0",
				"basic": "0"
			}
		}, {
			"customer": "336",
			"label":"N/A",
			"showItem": {
				"super": "1",
				"admin": "0",
				"power": "0",
				"user": "0",
				"basic": "0"
			}
		}]
	}, {
		"item": "pricing",
		"controlName":"pricing",
		"controlId":"pricing",
		"controlType":"label",
		"isDefault":"false",
		"itemConfig": [{
			"customer": "155370",
			"label":"N/A",
			"showItem": {
				"super": "1",
				"admin": "1",
				"power": "0",
				"user": "0",
				"basic": "0"
			}
		}, {
			"customer": "155711",
			"label":"N/A",
			"showItem": {
				"super": "1",
				"admin": "1",
				"power": "0",
				"user": "0",
				"basic": "1"
			}
		}, {
			"customer": "105",
			"label":"N/A",
			"showItem": {
				"super": "1",
				"admin": "1",
				"power": "1",
				"user": "0",
				"basic": "1"
			}
		}, {
			"customer": "284",
			"label":"N/A",
			"showItem": {
				"super": "1",
				"admin": "0",
				"power": "0",
				"user": "1",
				"basic": "0"
			}
		}, {
			"customer": "100382",
			"label":"N/A",
			"showItem": {
				"super": "1",
				"admin": "1",
				"power": "0",
				"user": "0",
				"basic": "0"
			}
		}, {
			"customer": "279",
			"label":"N/A",
			"showItem": {
				"super": "1",
				"admin": "0",
				"power": "0",
				"user": "0",
				"basic": "0"
			}
		}, {
			"customer": "6000420",
			"label":"N/A",
			"showItem": {
				"super": "1",
				"admin": "0",
				"power": "0",
				"user": "0",
				"basic": "0"
			}
		}, {
			"customer": "336",
			"label":"N/A",
			"showItem": {
				"super": "1",
				"admin": "0",
				"power": "0",
				"user": "0",
				"basic": "0"
			}
		}]
	}, {
		"item": "pricingNote",
		"controlName":"Pricing Note",
		"controlId":"pricingNote",
		"controlType":"label",
		"isDefault":"false",
		"itemConfig": [{
			"customer": "155370",
			"label":"N/A",
			"showItem": {
				"super": "1",
				"admin": "0",
				"power": "0",
				"user": "0",
				"basic": "0"
			}
		}, {
			"customer": "155711",
			"label":"N/A",
			"showItem": {
				"super": "1",
				"admin": "0",
				"power": "0",
				"user": "0",
				"basic": "0"
			}
		}, {
			"customer": "105",
			"label":"N/A",
			"showItem": {
				"super": "1",
				"admin": "0",
				"power": "0",
				"user": "0",
				"basic": "0"
			}
		}, {
			"customer": "284",
			"label":"N/A",
			"showItem": {
				"super": "1",
				"admin": "1",
				"power": "0",
				"user": "0",
				"basic": "1"
			}
		}, {
			"customer": "100382",
			"label":"N/A",
			"showItem": {
				"super": "1",
				"admin": "0",
				"power": "0",
				"user": "0",
				"basic": "0"
			}
		}, {
			"customer": "279",
			"label":"N/A",
			"showItem": {
				"super": "1",
				"admin": "0",
				"power": "0",
				"user": "0",
				"basic": "0"
			}
		}, {
			"customer": "6000420",
			"label":"N/A",
			"showItem": {
				"super": "1",
				"admin": "0",
				"power": "0",
				"user": "0",
				"basic": "0"
			}
		}, {
			"customer": "336",
			"label":"N/A",
			"showItem": {
				"super": "1",
				"admin": "0",
				"power": "0",
				"user": "0",
				"basic": "0"
			}
		}]
	}, {
		"item": "productType",
		"controlName":"Product Type",
		"controlId":"productType",
		"controlType":"dropdown",
		"isDefault":"false",
		"itemConfig": [{
			"customer": "155370",
			"label":"N/A",
			"showItem": {
				"super": "1",
				"admin": "0",
				"power": "0",
				"user": "0",
				"basic": "1"
			}
		}, {
			"customer": "155711",
			"label":"N/A",
			"showItem": {
				"super": "1",
				"admin": "0",
				"power": "0",
				"user": "0",
				"basic": "0"
			}
		}, {
			"customer": "105",
			"label":"N/A",
			"showItem": {
				"super": "1",
				"admin": "0",
				"power": "0",
				"user": "0",
				"basic": "0"
			}
		}, {
			"customer": "284",
			"label":"N/A",
			"showItem": {
				"super": "1",
				"admin": "0",
				"power": "0",
				"user": "0",
				"basic": "0"
			}
		}, {
			"customer": "100382",
			"label":"N/A",
			"showItem": {
				"super": "1",
				"admin": "0",
				"power": "0",
				"user": "0",
				"basic": "0"
			}
		}, {
			"customer": "279",
			"label":"N/A",
			"showItem": {
				"super": "1",
				"admin": "1",
				"power": "1",
				"user": "0",
				"basic": "0"
			}
		}, {
			"customer": "6000420",
			"label":"N/A",
			"showItem": {
				"super": "1",
				"admin": "0",
				"power": "0",
				"user": "0",
				"basic": "0"
			}
		}, {
			"customer": "336",
			"label":"N/A",
			"showItem": {
				"super": "1",
				"admin": "0",
				"power": "0",
				"user": "0",
				"basic": "0"
			}
		}]
	}, {
		"item": "co-opFunds",
		"controlName":"Co-Op Funds",
		"controlId":"co-opFunds",
		"controlType":"popup",
		"isDefault":"false",
		"itemConfig": [{
			"customer": "155370",
			"label":"N/A",
			"showItem": {
				"super": "1",
				"admin": "0",
				"power": "0",
				"user": "0",
				"basic": "0"
			}
		}, {
			"customer": "155711",
			"label":"N/A",
			"showItem": {
				"super": "1",
				"admin": "0",
				"power": "0",
				"user": "0",
				"basic": "0"
			}
		}, {
			"customer": "105",
			"label":"N/A",
			"showItem": {
				"super": "1",
				"admin": "0",
				"power": "0",
				"user": "0",
				"basic": "0"
			}
		}, {
			"customer": "284",
			"label":"N/A",
			"showItem": {
				"super": "1",
				"admin": "0",
				"power": "0",
				"user": "0",
				"basic": "0"
			}
		}, {
			"customer": "100382",
			"label":"N/A",
			"showItem": {
				"super": "1",
				"admin": "0",
				"power": "0",
				"user": "0",
				"basic": "0"
			}
		}, {
			"customer": "279",
			"label":"N/A",
			"showItem": {
				"super": "1",
				"admin": "1",
				"power": "1",
				"user": "1",
				"basic": "1"
			}
		}, {
			"customer": "6000420",
			"label":"N/A",
			"showItem": {
				"super": "1",
				"admin": "0",
				"power": "0",
				"user": "0",
				"basic": "0"
			}
		}, {
			"customer": "336",
			"label":"N/A",
			"showItem": {
				"super": "1",
				"admin": "0",
				"power": "0",
				"user": "0",
				"basic": "0"
			}
		}]
	}, {
		"item": "saveButton",
		"controlName":"saveButton",
		"controlId":"saveButton",
		"controlType":"button",
		"isDefault":"false",
		"itemConfig": [{
			"customer": "155370",
			"label":"N/A",
			"showItem": {
				"super": "1",
				"admin": "1",
				"power": "1",
				"user": "0",
				"basic": "0"
			}
		}, {
			"customer": "155711",
			"label":"N/A",
			"showItem": {
				"super": "1",
				"admin": "1",
				"power": "1",
				"user": "0",
				"basic": "0"
			}
		}, {
			"customer": "105",
			"label":"N/A",
			"showItem": {
				"super": "1",
				"admin": "1",
				"power": "1",
				"user": "0",
				"basic": "0"
			}
		}, {
			"customer": "284",
			"label":"N/A",
			"showItem": {
				"super": "1",
				"admin": "1",
				"power": "1",
				"user": "0",
				"basic": "0"
			}
		}, {
			"customer": "100382",
			"label":"N/A",
			"showItem": {
				"super": "1",
				"admin": "1",
				"power": "1",
				"user": "0",
				"basic": "0"
			}
		}, {
			"customer": "279",
			"label":"N/A",
			"showItem": {
				"super": "1",
				"admin": "1",
				"power": "1",
				"user": "1",
				"basic": "0"
			}
		}, {
			"customer": "6000420",
			"label":"N/A",
			"showItem": {
				"super": "1",
				"admin": "1",
				"power": "0",
				"user": "0",
				"basic": "0"
			}
		}, {
			"customer": "336",
			"label":"N/A",
			"showItem": {
				"super": "1",
				"admin": "1",
				"power": "0",
				"user": "1",
				"basic": "0"
			}
		}]
	}, {
		"item": "continueButton",
		"controlName":"Continue Button",
		"controlId":"continueButton",
		"controlType":"button",
		"isDefault":"false",
		"itemConfig": [{
			"customer": "155370",
			"label":"N/A",
			"showItem": {
				"super": "1",
				"admin": "1",
				"power": "1",
				"user": "1",
				"basic": "1"
			}
		}, {
			"customer": "155711",
			"label":"N/A",
			"showItem": {
				"super": "1",
				"admin": "1",
				"power": "1",
				"user": "1",
				"basic": "1"
			}
		}, {
			"customer": "105",
			"label":"N/A",
			"showItem": {
				"super": "1",
				"admin": "1",
				"power": "1",
				"user": "1",
				"basic": "1"
			}
		}, {
			"customer": "284",
			"label":"N/A",
			"showItem": {
				"super": "1",
				"admin": "1",
				"power": "1",
				"user": "1",
				"basic": "1"
			}
		}, {
			"customer": "100382",
			"label":"N/A",
			"showItem": {
				"super": "1",
				"admin": "1",
				"power": "1",
				"user": "1",
				"basic": "1"
			}
		}, {
			"customer": "279",
			"label":"N/A",
			"showItem": {
				"super": "1",
				"admin": "1",
				"power": "1",
				"user": "1",
				"basic": "1"
			}
		}, {
			"customer": "6000420",
			"label":"N/A",
			"showItem": {
				"super": "1",
				"admin": "1",
				"power": "1",
				"user": "1",
				"basic": "1"
			}
		}, {
			"customer": "336",
			"label":"N/A",
			"showItem": {
				"super": "1",
				"admin": "1",
				"power": "1",
				"user": "1",
				"basic": "1"
			}
		}]
	}, {
		"item": "hints",
		"controlName":"Hints",
		"controlId":"hints",
		"controlType":"slider",
		"isDefault":"false",
		"itemConfig": [{
			"customer": "155370",
			"label":"N/A",
			"showItem": {
				"super": "1",
				"admin": "1",
				"power": "1",
				"user": "0",
				"basic": "0"
			}
		}, {
			"customer": "155711",
			"label":"N/A",
			"showItem": {
				"super": "1",
				"admin": "1",
				"power": "1",
				"user": "0",
				"basic": "0"
			}
		}, {
			"customer": "105",
			"label":"N/A",
			"showItem": {
				"super": "1",
				"admin": "1",
				"power": "0",
				"user": "1",
				"basic": "0"
			}
		}, {
			"customer": "284",
			"label":"N/A",
			"showItem": {
				"super": "1",
				"admin": "1",
				"power": "0",
				"user": "0",
				"basic": "0"
			}
		}, {
			"customer": "100382",
			"label":"N/A",
			"showItem": {
				"super": "1",
				"admin": "0",
				"power": "0",
				"user": "0",
				"basic": "1"
			}
		}, {
			"customer": "279",
			"label":"N/A",
			"showItem": {
				"super": "1",
				"admin": "0",
				"power": "0",
				"user": "0",
				"basic": "1"
			}
		}, {
			"customer": "6000420",
			"label":"N/A",
			"showItem": {
				"super": "1",
				"admin": "1",
				"power": "0",
				"user": "0",
				"basic": "1"
			}
		}, {
			"customer": "336",
			"label":"N/A",
			"showItem": {
				"super": "1",
				"admin": "1",
				"power": "1",
				"user": "0",
				"basic": "0"
			}
		}]
	}]
}