[{
			"fileName": "CDS.txt",
			"sourceType": 1,
			"priority": 0,
			"fileMap": "cds_map.xml",
			"clientProject": null,
			"locationId": "21905",
			"isEnabled": true,
			"fileStatus": "OK",
			"linkedTo": "",
			"fileSizePretty": "1K"
		}, {
			"fileName": "Subscribers.txt",
			"sourceType": 6,
			"priority": 10,
			"fileMap": "Subscribers_map.xml",
			"clientProject": null,
			"locationId": "21906",
			"isEnabled": true,
			"fileStatus": "OK",
			"linkedTo": null,
			"fileSizePretty": "1K"
		}, {
			"fileName": "PCD.txt",
			"sourceType": 2,
			"priority": 10,
			"fileMap": "pcd_map.xml",
			"clientProject": null,
			"locationId": "21905",
			"isEnabled": true,
			"fileStatus": "OK",
			"linkedTo": null,
			"fileSizePretty": "1K"
		}, {
			"fileName": "Sunday Select.txt",
			"sourceType": 2,
			"priority": 10,
			"fileMap": "SundaySelect_map.xml",
			"clientProject": null,
			"locationId": "21905",
			"isEnabled": true,
			"fileStatus": "OK",
			"linkedTo": null,
			"fileSizePretty": "1K"
		}, {
			"fileName": "El Sentinel.txt",
			"sourceType": 2,
			"priority": 10,
			"fileMap": "ElSentinel_map.xml",
			"clientProject": null,
			"locationId": "21905",
			"isEnabled": true,
			"fileStatus": "OK",
			"linkedTo": null,
			"fileSizePretty": "1K"
		}, {
			"fileName": "Forum Publishing.txt",
			"sourceType": 2,
			"priority": 10,
			"fileMap": "ForumPublishing_map.xml",
			"clientProject": null,
			"locationId": "21905",
			"isEnabled": true,
			"fileStatus": "OK",
			"linkedTo": null,
			"fileSizePretty": "1K"
		}, {
			"fileName": "Do Not Mail.txt",
			"sourceType": 2,
			"priority": 10,
			"fileMap": "DoNotMail_map.xml",
			"clientProject": null,
			"locationId": "21905",
			"isEnabled": true,
			"fileStatus": "OK",
			"linkedTo": null,
			"fileSizePretty": "1K"
		}, {
			"fileName": "Seed.txt",
			"sourceType": 2,
			"priority": 10,
			"fileMap": "Seed_map.xml",
			"clientProject": null,
			"locationId": "21905",
			"isEnabled": true,
			"fileStatus": "OK",
			"linkedTo": null,
			"fileSizePretty": "1K"
		}]