[{
	"status": "Completed",
	"date": "11/2/2016",
	"general": {
		"jobTypeID": "",
		"template": "",
		"requirementName": "CTC Subscriber File",
		"localDirectory": "%dirProject%\\source\\source",
		"directoryVariable": "",
		"nameFormat": "ChicagoTribuneSubscribers_11/16/2016",
		"nameVariable": "",
		"assignedTo": "Gizmo"
	},
	"scheduling": {
		"scheduleType": "weekly",
		"startOffsetWeeks": "",
		"runStartDay": "Sunday 10/30/2016",
		"runStartHour": "9 AM",
		"stopOffsetWeeks": "",
		"runStopDay": "Saturday 11/5/2016",
		"runStopHour": "5 PM"
	},
	"type": {
		"requirementType": "ftp",
		"action": "get",
		"host": "ftp.tribune.com",
		"username": "ctc_tribunedirect",
		"password": "ctc_tribunedirect2005",
		"ftpDirectory": "/ftptribune/ctc/tribdirect",
		"ftpFileName": "11/16/2016 300 ASL.txt",
		"ftpNameVariable": "",
		"fromName": "",
		"directory": "",
		"toName": ""
	},
	"instructions": "Place a description or instructions here to help other users understand this requirement."
}, {
	"status": "Missing",

	"general": {
		"jobTypeID": "",
		"template": "",
		"requirementName": "CTC Subscriber Draw",
		"localDirectory": "%dirProject%\\source\\source",
		"directoryVariable": "",
		"nameFormat": "CTC_Topper_11/16/2016",
		"nameVariable": "",
		"assignedTo": "Gizmo"
	},
	"scheduling": {
		"scheduleType": "weekly",
		"startOffsetWeeks": "",
		"runStartDay": "Sunday 10/30/2016",
		"runStartHour": "9 AM",
		"stopOffsetWeeks": "",
		"runStopDay": "Saturday 11/5/2016",
		"runStopHour": "5 PM"
	},
	"type": {
		"requirementType": "ftp",
		"action": "get",
		"host": "ftp.tribune.com",
		"userName": "ctc_tribunedirect",
		"password": "ctc_tribunedirect2005",
		"ftpDirectory": "/ftptribune/ctc/tribdirect",
		"ftpFileName": "CTC_Topper_11/16/2016",
		"ftpNameVariable": "",
		"fromName": "",
		"directory": "",
		"toName": ""
	},
	"instructions": "Place a description or instructions here to help other users understand this requirement."
}, {
	"status": "Missing",
	"general": {
		"jobTypeID": "",
		"template": "",
		"requirementName": "PCD Draw",
		"localDirectory": "%dirProject%\\source\\source",
		"directoryVariable": "",
		"nameFormat": "CTC_PCD_11/16/2016",
		"nameVariable": "",
		"assignedTo": "Gizmo"
	},
	"scheduling": {
		"scheduleType": "weekly",
		"startOffsetWeeks": "",
		"runStartDay": "Sunday 10/30/2016",
		"runStartHour": "9 AM",
		"stopOffsetWeeks": "",
		"runStopDay": "Saturday 11/5/2016",
		"runStopHour": "5 PM"
	},
	"type": {
		"requirementType": "ftp",
		"action": "get",
		"host": "ftp.tribune.com",
		"username": "ctc_tribunedirect",
		"password": "ctc_tribunedirect2005",
		"ftpDirectory": "/ftptribune/ctc/tribdirect",
		"ftpFileName": "CTC_PCD_11/16/2016",
		"ftpNameVariable": "",
		"fromName": "",
		"directory": "",
		"toName": ""
	},
	"instructions": "Place a description or instructions here to help other users understand this requirement."
}, {
	"status": "Completed",
	"date": "11/2/2016",
	"general": {
		"jobTypeID": "",
		"template": "",
		"requirementName": "VCI Do Not Mail",
		"localDirectory": "%dirProject%\\source\\source",
		"directoryVariable": "",
		"nameFormat": "",
		"nameVariable": "",
		"assignedTo": "Gizmo"
	},
	"scheduling": {
		"scheduleType": "weekly",
		"startOffsetWeeks": "",
		"runStartDay": "Sunday 10/30/2016",
		"runStartHour": "9 AM",
		"stopOffsetWeeks": "",
		"runStopDay": "Saturday 11/5/2016",
		"runStopHour": "5 PM"
	},
	"type": {
		"requirementType": "sftp",
		"action": "get",
		"host": "mft.valassis.com",
		"username": "trib_bskoda",
		"password": "m0Torcycle",
		"ftpDirectory": "/TMC_Chicago_Tribune",
		"ftpFileName": "11/16/2016-DND.txt",
		"ftpNameVariable": "ssh-dss 1024 ab:4b:05:d0:8f:64:fe:80:dd:d9:10:14:28:09:92:6c",
		"fromName": "",
		"directory": "",
		"toName": ""
	},
	"instructions": "Place a description or instructions here to help other users understand this requirement."
}, {
	"status": "Completed",
	"date": "11/2/2016",
	"general": {
		"jobTypeID": "",
		"template": "",
		"requirementName": "VCI ATZs",
		"localDirectory": "%dirProject%\\source\\source",
		"directoryVariable": "",
		"nameFormat": "",
		"nameVariable": "",
		"assignedTo": "Gizmo"
	},
	"scheduling": {
		"scheduleType": "weekly",
		"startOffsetWeeks": "",
		"runStartDay": "Sunday 10/30/2016",
		"runStartHour": "9 AM",
		"stopOffsetWeeks": "",
		"runStopDay": "Saturday 11/5/2016",
		"runStopHour": "5 PM"
	},
	"type": {
		"requirementType": "sftp",
		"action": "get",
		"host": "mft.valassis.com",
		"username": "trib_bskoda",
		"password": "m0Torcycle",
		"ftpDirectory": "/TMC_Chicago_Tribune",
		"ftpFileName": "11/16/2016-cross_reference.txt",
		"ftpNameVariable": "ssh-dss 1024 ab:4b:05:d0:8f:64:fe:80:dd:d9:10:14:28:09:92:6c",
		"fromName": "",
		"directory": "",
		"toName": ""
	},
	"instructions": "Place a description or instructions here to help other users understand this requirement."
}, {
	"status": "Completed",
	"date": "11/2/2016",
	"general": {
		"jobTypeID": "",
		"template": "",
		"requirementName": "Daily Herald Subscribers",
		"localDirectory": "%dirProject%\\source\\source",
		"directoryVariable": "",
		"nameFormat": "",
		"nameVariable": "",
		"assignedTo": "Gizmo"

	},
	"scheduling": {
		"scheduleType": "weekly",
		"startOffsetWeeks": "",
		"runStartDay": "Sunday 10/30/2016",
		"runStartHour": "9 AM",
		"stopOffsetWeeks": "",
		"runStopDay": "Saturday 11/5/2016",
		"runStopHour": "5 PM"
	},
	"type": {
		"requirementType": "ftp",
		"action": "copy",
		"host": "",
		"username": "",
		"password": "",
		"ftpDirectory": "",
		"ftpFileName": "",
		"fromName": "dailyHerald_subs_*.txt",
		"directory": "\\\\s-shares\\OpenVolume\\Development\\bskoda\\TMC_ChicagoFiles",
		"toName": "%dirProject%\\source\\source"
	},
	"instructions": "Place a description or instructions here to help other users understand this requirement."
}]